// Jest Snapshot v1, https://goo.gl/fbAQLP

exports[`AddTenantDurationSelect.vue should render component properly 1`] = `
<div
  class="mami-select-options"
>
  <mami-input-wrapper-stub
    errormessage=""
    inputinfo=""
    inputlabel="Durasi Sewa"
    isrequired="true"
  >
    <v-select-stub
      disabled="true"
      lang="en-US"
      limit="1024"
      minsearch="0"
      options=""
      optionslabel="label"
      optionsvalue="value"
      parent="true"
      placeholder="Pilih durasi sewa"
      value="0"
    />
  </mami-input-wrapper-stub>
</div>
`;

exports[`AddTenantDurationSelect.vue should set isValid to false if input is empty 1`] = `
<div
  class="mami-select-options --is-error"
>
  <mami-input-wrapper-stub
    errormessage="Wajib diisi"
    inputinfo=""
    inputlabel="Durasi Sewa"
    isrequired="true"
  >
    <v-select-stub
      lang="en-US"
      limit="1024"
      minsearch="0"
      options=""
      optionslabel="label"
      optionsvalue="value"
      parent="true"
      placeholder="Pilih durasi sewa"
      value="0"
    >
      <v-option-stub
        value="1"
      >
        
				1 Bulan
			
      </v-option-stub>
      <v-option-stub
        value="2"
      >
        
				2 Bulan
			
      </v-option-stub>
    </v-select-stub>
  </mami-input-wrapper-stub>
</div>
`;
