// Jest Snapshot v1, https://goo.gl/fbAQLP

exports[`Consultant/pages/room-allotment/components/Card.vue should render correctly 1`] = `
<div
  class="room-allotment-card"
>
  <ct-card-stub
    color="#fff"
    minheight=""
    minwidth=""
    radius="8px"
    to="[object Object]"
  >
    <ct-card-header-stub
      class="flex-parent"
      color=""
      divider=""
      minheight=""
      style="background-color: rgb(250, 250, 250);"
    >
      <div>
        <div
          class="numbering"
        >
          
					0
				
        </div>
      </div>
       
      <div>
        <button
          class="delete-button"
        >
          <i
            class="mamikos-icon icon-delete"
          />
        </button>
      </div>
    </ct-card-header-stub>
     
    <ct-card-body-stub
      maxheight=""
      minheight=""
      padding=""
    >
      <inputtext-stub
        appendicon=""
        aria-invalid="false"
        aria-required="true"
        backgroundcolor=""
        data-vv-as="Nomor Kamar"
        data-vv-delay="500"
        data-vv-id="1"
        data-vv-name="test"
        data-vv-scope="roomAllotment"
        label="Nomor / Nama Kamar"
        mandatorysign="true"
        placeholder=""
        prependicon=""
        radius="NaN"
        type="text"
        value=""
      />
       
      <inputtext-stub
        appendicon=""
        backgroundcolor=""
        invalidmessage=""
        label="Lantai"
        placeholder=""
        prependicon=""
        radius="NaN"
        type="text"
        value=""
      />
    </ct-card-body-stub>
     
    <ct-card-footer-stub
      class="flex-parent"
      color=""
      divider=""
      minheight=""
      style="background-color: rgb(250, 250, 250);"
    >
      <div
        class="text-occupied el-center-on-start"
      >
        
				Sudah Berpenghuni  
				
        <!---->
      </div>
       
      <div>
        <toggle-button-stub
          height="22"
          margin="3"
          speed="300"
          sync="true"
          width="50"
        />
      </div>
    </ct-card-footer-stub>
  </ct-card-stub>
</div>
`;

exports[`Consultant/pages/room-allotment/components/Card.vue should render tooltip 1`] = `
<div class="text-occupied el-center-on-start">
  Sudah Berpenghuni &nbsp;
  <span class="room-tooltip"><i class="mamikos-icon icon-info"></i></span></div>
`;
