// Jest Snapshot v1, https://goo.gl/fbAQLP

exports[`SearchWrapper.vue Should render component and match snapshot 1`] = `
<div class="search-wrapper">
  <header class="search-wrapper__header">
    <div class="arrow-back-wrapper"><button class="arrow-btn"><img src="
              /general/img/icons/ic_arrow-left_alt_black.svg
              " alt="Icon turn back"></button></div>
    <div class="search-input-wrapper">
      <div class="ct-input-text ct-input--flat">
        <div class="ct-input__wrapper">
          <!---->
          <div class="ct-input__body" style="border-radius: 4px; background-color: rgb(243, 246, 251);">
            <div class="ct-input__prepend-icon inner-icon"><i class="mamikos-icon icon-search"></i></div>
            <div class="ct-input__field"><input type="text" placeholder="" class="input"></div>
            <div class="ct-input__append-icon inner-icon clearable-icon"><i class="mamikos-icon icon-cross-circle"></i></div>
            <!---->
          </div>
          <!---->
        </div>
      </div>
    </div>
  </header>
  <div class="search-wrapper__body">
    <div></div>
  </div>
</div>
`;
