// Jest Snapshot v1, https://goo.gl/fbAQLP

exports[`DraftBookingShortcutRoom.vue should render room available label properly 1`] = `
<span class="--room-available text-primary text-alert">
							Sisa 1 Kamar
						</span>
`;

exports[`DraftBookingShortcutRoom.vue should render room available label properly 2`] = `
<span class="--room-available text-primary">
							Tersedia 7 Kamar
						</span>
`;

exports[`DraftBookingShortcutRoom.vue should set date properly 1`] = `"04 Apr 2020"`;
