// Jest Snapshot v1, https://goo.gl/fbAQLP

exports[`OtherRejectReasonDescription.vue should mount component properly 1`] = `
<div
  class="other-reason-description"
>
  <textarea
    class="borderless-form other-reason-description__textarea"
    maxlength="60"
    placeholder=""
    rows="3"
  />
   
  <span
    class="other-reason-description__counter"
  >
    
		0/60
	
  </span>
</div>
`;
