[
	{
		"index": 0,
		"data": [
			{
				"_id": 62041738,
				"address": " ",
				"apartment_project_id": 0,
				"area_label": "Pasar Minggu, Jakarta Selatan, Jakarta",
				"available_room": 4,
				"cards": [],
				"checker": false,
				"city": "Jakarta Selatan",
				"class": 0,
				"class_badge": null,
				"click_count": 18845,
				"expired_status": null,
				"fac_bath_ids": [],
				"fac_room_ids": [],
				"fac_share_ids": [],
				"floor": "0",
				"furnished_status": "Not Furnished",
				"gender": 0,
				"has_round_photo": true,
				"has_video": true,
				"is_booking": false,
				"is_mamirooms": false,
				"is_premium_owner": false,
				"is_promoted": true,
				"is_top_owner": true,
				"keyword": [null],
				"label": {
					"label": "Bebas 24 Jam",
					"priority": 2
				},
				"label_array": [
					{
						"label": "Bebas 24 Jam",
						"priority": 2
					}
				],
				"last_updated": 1586330787,
				"level_info": {
					"id": 2,
					"name": "Reguler",
					"is_regular": true,
					"flag": null,
					"flag_id": null
				},
				"love_by_me": false,
				"min_month": null,
				"not_updated": false,
				"online": "Lama Tidak Update",
				"owner_phone": "",
				"owner_phone_array": [],
				"photo_count": 0,
				"photo_url": {
					"real": "https://static.mamikos.com/uploads/data/style/2017-06-15/2zXplY9t.jpg",
					"small": "https://static.mamikos.com/uploads/cache/data/style/2017-06-15/2zXplY9t-240x320.jpg",
					"medium": "https://static.mamikos.com/uploads/cache/data/style/2017-06-15/2zXplY9t-360x480.jpg",
					"large": "https://static.mamikos.com/uploads/cache/data/style/2017-06-15/2zXplY9t-540x720.jpg"
				},
				"price_title": "4.2 jt",
				"price_title_format": {
					"currency_symbol": "Rp",
					"price": "4.200.000",
					"rent_type_unit": "bulan",
					"discount_price": "100.000"
				},
				"price_title_time": "4.200.000 / bulan",
				"promo_title": "PROMO",
				"rating": 4,
				"rating_string": "4.0",
				"review_count": 4,
				"room-title": "Kost Rumah Kamang Residence Ragunan Pasar Minggu Jakarta Selatan",
				"share_url": "http://localhost:8000/room/kost-jakarta-selatan-kost-campur-eksklusif-kost-rumah-kamang-residence-ragunan-pasar-minggu-jakarta-selatan-1",
				"size": "3,5x5,5 ",
				"status": 0,
				"status-title": "null",
				"status_kos": "verified",
				"subdistrict": "Pasar Minggu",
				"unique_code": "",
				"unit_type": null,
				"unit_type_rooms": null,
				"updated": "2019-06-03 11:26:36",
				"verification_status": {
					"is_verified_address": true,
					"is_verified_phone": true,
					"is_visited_kost": true,
					"is_verified_kost": true,
					"is_verified_by_mamikos": false
				},
				"as_promoted": true
			},
			{
				"_id": 11840438,
				"address": " ",
				"apartment_project_id": 0,
				"area_label": "Grogol petamburan, Jakarta Barat, Jakarta",
				"available_room": 2,
				"cards": [],
				"checker": false,
				"city": "Jakarta Barat",
				"class": 0,
				"class_badge": null,
				"click_count": 40400,
				"expired_status": null,
				"fac_bath_ids": [],
				"fac_room_ids": [],
				"fac_share_ids": [],
				"floor": "0",
				"furnished_status": "Not Furnished",
				"gender": 2,
				"has_round_photo": true,
				"has_video": true,
				"is_booking": false,
				"is_mamirooms": false,
				"is_premium_owner": false,
				"is_promoted": true,
				"is_top_owner": true,
				"keyword": [null],
				"label": {
					"label": "Bebas 24 Jam",
					"priority": 2
				},
				"label_array": [
					{
						"label": "Bebas 24 Jam",
						"priority": 2
					}
				],
				"last_updated": 1586330788,
				"level_info": {
					"id": 2,
					"name": "Reguler",
					"is_regular": true,
					"flag": null,
					"flag_id": null
				},
				"love_by_me": false,
				"min_month": null,
				"not_updated": false,
				"online": "Lama Tidak Update",
				"owner_phone": "",
				"owner_phone_array": [],
				"photo_count": 0,
				"photo_url": {
					"real": "https://static.mamikos.com/uploads/data/style/2018-02-05/A7yf467y.jpg",
					"small": "https://static.mamikos.com/uploads/cache/data/style/2018-02-05/A7yf467y-240x320.jpg",
					"medium": "https://static.mamikos.com/uploads/cache/data/style/2018-02-05/A7yf467y-360x480.jpg",
					"large": "https://static.mamikos.com/uploads/cache/data/style/2018-02-05/A7yf467y-540x720.jpg"
				},
				"price_title": "1.6 jt",
				"price_title_format": {
					"currency_symbol": "Rp",
					"price": "1.600.000",
					"rent_type_unit": "bulan"
				},
				"price_title_time": "1.600.000 / bulan",
				"promo_title": "PROMO",
				"rating": 3,
				"rating_string": "3.2",
				"review_count": 5,
				"room-title": "Kost Chintia - Janson Jakarta Barat",
				"share_url": "http://localhost:8000/room/kost-jakarta-barat-kost-putri-eksklusif-kost-chintia-janson-jakarta-barat-1",
				"size": "krg lebih 3 x 3",
				"status": 0,
				"status-title": "null",
				"status_kos": "verified",
				"subdistrict": "Grogol petamburan",
				"unique_code": "",
				"unit_type": null,
				"unit_type_rooms": null,
				"updated": "2019-06-10 09:41:18",
				"verification_status": {
					"is_verified_address": true,
					"is_verified_phone": true,
					"is_visited_kost": true,
					"is_verified_kost": true,
					"is_verified_by_mamikos": false
				},
				"as_promoted": true
			},
			{
				"_id": 87512468,
				"address": " ",
				"apartment_project_id": 0,
				"area_label": "Kalideres, Jakarta Selatan, Jakarta",
				"available_room": 5,
				"cards": [],
				"checker": false,
				"city": "Jakarta Selatan",
				"class": 0,
				"class_badge": null,
				"click_count": 21557,
				"expired_status": null,
				"fac_bath_ids": [],
				"fac_room_ids": [],
				"fac_share_ids": [],
				"floor": "0",
				"furnished_status": "Not Furnished",
				"gender": 1,
				"has_round_photo": false,
				"has_video": false,
				"is_booking": false,
				"is_mamirooms": false,
				"is_premium_owner": false,
				"is_promoted": true,
				"is_top_owner": false,
				"keyword": ["Min. 2 Bln"],
				"label": {
					"label": "Bebas 24 Jam",
					"priority": 2
				},
				"label_array": [
					{
						"label": "Bebas 24 Jam",
						"priority": 2
					}
				],
				"last_updated": 1586330789,
				"level_info": {
					"id": 2,
					"name": "Reguler",
					"is_regular": true,
					"flag": null,
					"flag_id": null
				},
				"love_by_me": false,
				"min_month": "Min. 2 Bln",
				"not_updated": false,
				"online": "Lama Tidak Update",
				"owner_phone": "",
				"owner_phone_array": [],
				"photo_count": 0,
				"photo_url": {
					"real": "https://static.mamikos.com/uploads/data/style/2017-12-22/XvU8I9GN.jpeg",
					"small": "https://static.mamikos.com/uploads/cache/data/style/2017-12-22/XvU8I9GN-240x320.jpg",
					"medium": "https://static.mamikos.com/uploads/cache/data/style/2017-12-22/XvU8I9GN-360x480.jpg",
					"large": "https://static.mamikos.com/uploads/cache/data/style/2017-12-22/XvU8I9GN-540x720.jpg"
				},
				"price_title": "1.3 jt",
				"price_title_format": {
					"currency_symbol": "Rp",
					"price": "1.300.000",
					"rent_type_unit": "bulan"
				},
				"price_title_time": "1.300.000 / bulan",
				"promo_title": "PROMO",
				"rating": 3,
				"rating_string": "3.0",
				"review_count": 1,
				"room-title": "Kost Citra Garden 2 blok N/10 16 Tipe A Kalideres Jakarta Barat",
				"share_url": "http://localhost:8000/room/kost-jakarta-selatan-kost-putra-eksklusif-kost-citra-garden-2-blok-n-10-16-kalideres-jakarta-barat",
				"size": "2.8x3",
				"status": 0,
				"status-title": "null",
				"status_kos": "verified",
				"subdistrict": "Kalideres",
				"unique_code": "",
				"unit_type": null,
				"unit_type_rooms": null,
				"updated": "2019-06-10 08:30:35",
				"verification_status": {
					"is_verified_address": true,
					"is_verified_phone": true,
					"is_visited_kost": true,
					"is_verified_kost": true,
					"is_verified_by_mamikos": false
				},
				"as_promoted": true
			},
			{
				"_id": 92347906,
				"address": " ",
				"apartment_project_id": 0,
				"area_label": "",
				"available_room": 1,
				"cards": [],
				"checker": false,
				"city": "",
				"class": 0,
				"class_badge": null,
				"click_count": 17916,
				"expired_status": null,
				"fac_bath_ids": [],
				"fac_room_ids": [],
				"fac_share_ids": [],
				"floor": "0",
				"furnished_status": "Not Furnished",
				"gender": 2,
				"has_round_photo": false,
				"has_video": false,
				"is_booking": false,
				"is_mamirooms": false,
				"is_premium_owner": false,
				"is_promoted": true,
				"is_top_owner": false,
				"keyword": [null],
				"label": {
					"label": "Bebas 24 Jam",
					"priority": 2
				},
				"label_array": [
					{
						"label": "Bebas 24 Jam",
						"priority": 2
					}
				],
				"last_updated": 1586330790,
				"level_info": {
					"id": 2,
					"name": "Reguler",
					"is_regular": true,
					"flag": null,
					"flag_id": null
				},
				"love_by_me": false,
				"min_month": null,
				"not_updated": false,
				"online": "Lama Tidak Update",
				"owner_phone": "",
				"owner_phone_array": [],
				"photo_count": 0,
				"photo_url": {
					"real": "https://static.mamikos.com/uploads/data/user/2017-03-11/lsdIflL9.jpg",
					"small": "https://static.mamikos.com/uploads/cache/data/user/2017-03-11/lsdIflL9-240x320.jpg",
					"medium": "https://static.mamikos.com/uploads/cache/data/user/2017-03-11/lsdIflL9-360x480.jpg",
					"large": "https://static.mamikos.com/uploads/cache/data/user/2017-03-11/lsdIflL9-540x720.jpg"
				},
				"price_title": "3.5 jt",
				"price_title_format": {
					"currency_symbol": "Rp",
					"price": "3.500.000",
					"rent_type_unit": "bulan"
				},
				"price_title_time": "3.500.000 / bulan",
				"promo_title": "PROMO",
				"rating": 4,
				"rating_string": "4.0",
				"review_count": 11,
				"room-title": "Kost Angel House Setiabudi Jakarta Selatan",
				"share_url": "http://localhost:8000/room/kost-kost-putri-eksklusif-kost-angel-house-setiabudi-jakarta-selatan-1",
				"size": "5x4 dengan springbed bermerk dan ukuran king size",
				"status": 0,
				"status-title": "null",
				"status_kos": "verified",
				"subdistrict": "",
				"unique_code": "",
				"unit_type": null,
				"unit_type_rooms": null,
				"updated": "2019-05-26 10:46:22",
				"verification_status": {
					"is_verified_address": true,
					"is_verified_phone": true,
					"is_visited_kost": true,
					"is_verified_kost": true,
					"is_verified_by_mamikos": false
				},
				"as_promoted": true
			},
			{
				"_id": 95670764,
				"address": " ",
				"apartment_project_id": 0,
				"area_label": "Rungkut, Surabaya, Surabaya",
				"available_room": 1,
				"cards": [],
				"checker": false,
				"city": "Surabaya",
				"class": 0,
				"class_badge": null,
				"click_count": 9492,
				"expired_status": null,
				"fac_bath_ids": [],
				"fac_room_ids": [],
				"fac_share_ids": [],
				"floor": "0",
				"furnished_status": "Not Furnished",
				"gender": 1,
				"has_round_photo": false,
				"has_video": false,
				"is_booking": false,
				"is_mamirooms": false,
				"is_premium_owner": false,
				"is_promoted": true,
				"is_top_owner": false,
				"keyword": [null],
				"label": {
					"label": "AC Murah",
					"priority": 1
				},
				"label_array": [
					{
						"label": "AC Murah",
						"priority": 1
					}
				],
				"last_updated": 1586330790,
				"level_info": {
					"id": 2,
					"name": "Reguler",
					"is_regular": true,
					"flag": null,
					"flag_id": null
				},
				"love_by_me": false,
				"min_month": null,
				"not_updated": false,
				"online": "Lama Tidak Update",
				"owner_phone": "",
				"owner_phone_array": [],
				"photo_count": 0,
				"photo_url": {
					"real": "https://static.mamikos.com/uploads/data/user/2017-03-21/T7twtURB.jpeg",
					"small": "https://static.mamikos.com/uploads/cache/data/user/2017-03-21/T7twtURB-240x320.jpg",
					"medium": "https://static.mamikos.com/uploads/cache/data/user/2017-03-21/T7twtURB-360x480.jpg",
					"large": "https://static.mamikos.com/uploads/cache/data/user/2017-03-21/T7twtURB-540x720.jpg"
				},
				"price_title": "850 rb",
				"price_title_format": {
					"currency_symbol": "Rp",
					"price": "850.000",
					"rent_type_unit": "bulan"
				},
				"price_title_time": "850.000 / bulan",
				"promo_title": "PROMO",
				"rating": 0,
				"rating_string": "0.0",
				"review_count": 0,
				"room-title": "Kost Bu Eti Raya Tenggilis Surabaya",
				"share_url": "http://localhost:8000/room/kost-surabaya-kost-putra-murah-kost-bu-eti-raya-tenggilis-surabaya",
				"size": "3x4",
				"status": 0,
				"status-title": "null",
				"status_kos": "verified",
				"subdistrict": "Rungkut",
				"unique_code": "",
				"unit_type": null,
				"unit_type_rooms": null,
				"updated": "2019-06-09 08:44:33",
				"verification_status": {
					"is_verified_address": true,
					"is_verified_phone": true,
					"is_visited_kost": true,
					"is_verified_kost": true,
					"is_verified_by_mamikos": false
				},
				"as_promoted": true
			},
			{
				"_id": 44810466,
				"address": " ",
				"apartment_project_id": 0,
				"area_label": "",
				"available_room": 3,
				"cards": [],
				"checker": false,
				"city": "",
				"class": 0,
				"class_badge": null,
				"click_count": 10158,
				"expired_status": null,
				"fac_bath_ids": [],
				"fac_room_ids": [],
				"fac_share_ids": [],
				"floor": "0",
				"furnished_status": "Not Furnished",
				"gender": 2,
				"has_round_photo": false,
				"has_video": false,
				"is_booking": false,
				"is_mamirooms": false,
				"is_premium_owner": false,
				"is_promoted": true,
				"is_top_owner": true,
				"keyword": [null],
				"label": {
					"label": "Bebas 24 Jam",
					"priority": 2
				},
				"label_array": [
					{
						"label": "Bebas 24 Jam",
						"priority": 2
					}
				],
				"last_updated": 1586330791,
				"level_info": {
					"id": 2,
					"name": "Reguler",
					"is_regular": true,
					"flag": null,
					"flag_id": null
				},
				"love_by_me": false,
				"min_month": null,
				"not_updated": false,
				"online": "Lama Tidak Update",
				"owner_phone": "",
				"owner_phone_array": [],
				"photo_count": 0,
				"photo_url": {
					"real": "https://static.mamikos.com/uploads/data/style/2018-07-02/SuMENuLe.jpg",
					"small": "https://static.mamikos.com/uploads/cache/data/style/2018-07-02/SuMENuLe-240x320.jpg",
					"medium": "https://static.mamikos.com/uploads/cache/data/style/2018-07-02/SuMENuLe-360x480.jpg",
					"large": "https://static.mamikos.com/uploads/cache/data/style/2018-07-02/SuMENuLe-540x720.jpg"
				},
				"price_title": "1.25 jt",
				"price_title_format": {
					"currency_symbol": "Rp",
					"price": "1.250.000",
					"rent_type_unit": "bulan"
				},
				"price_title_time": "1.250.000 / bulan",
				"promo_title": "PROMO",
				"rating": 4,
				"rating_string": "4.0",
				"review_count": 1,
				"room-title": "Kost Putri Annisa UII Sleman Yogyakarta",
				"share_url": "http://localhost:8000/room/kost-kost-putri-eksklusif-kost-putri-annisa-uii-sleman-yogyakarta",
				"size": "4x5",
				"status": 0,
				"status-title": "null",
				"status_kos": "verified",
				"subdistrict": "",
				"unique_code": "",
				"unit_type": null,
				"unit_type_rooms": null,
				"updated": "2019-05-12 20:44:50",
				"verification_status": {
					"is_verified_address": true,
					"is_verified_phone": true,
					"is_visited_kost": true,
					"is_verified_kost": true,
					"is_verified_by_mamikos": false
				},
				"as_promoted": true
			},
			{
				"_id": 18577808,
				"address": " ",
				"apartment_project_id": 0,
				"area_label": "Cibeunying Kaler, Bandung, Bandung",
				"available_room": 2,
				"cards": [],
				"checker": false,
				"city": "Bandung",
				"class": 0,
				"class_badge": null,
				"click_count": 17694,
				"expired_status": null,
				"fac_bath_ids": [],
				"fac_room_ids": [],
				"fac_share_ids": [],
				"floor": "0",
				"furnished_status": "Not Furnished",
				"gender": 2,
				"has_round_photo": false,
				"has_video": false,
				"is_booking": false,
				"is_mamirooms": false,
				"is_premium_owner": false,
				"is_promoted": true,
				"is_top_owner": false,
				"keyword": ["Min. 6 Bln"],
				"label": null,
				"label_array": null,
				"last_updated": 1586330792,
				"level_info": {
					"id": 2,
					"name": "Reguler",
					"is_regular": true,
					"flag": null,
					"flag_id": null
				},
				"love_by_me": false,
				"min_month": "Min. 6 Bln",
				"not_updated": false,
				"online": "Lama Tidak Update",
				"owner_phone": "",
				"owner_phone_array": [],
				"photo_count": 0,
				"photo_url": {
					"real": "https://static.mamikos.com/uploads/data/style/2017-06-04/jaMPblFh.jpg",
					"small": "https://static.mamikos.com/uploads/cache/data/style/2017-06-04/jaMPblFh-240x320.jpg",
					"medium": "https://static.mamikos.com/uploads/cache/data/style/2017-06-04/jaMPblFh-360x480.jpg",
					"large": "https://static.mamikos.com/uploads/cache/data/style/2017-06-04/jaMPblFh-540x720.jpg"
				},
				"price_title": "800 rb",
				"price_title_format": {
					"currency_symbol": "Rp",
					"price": "800.000",
					"rent_type_unit": "bulan"
				},
				"price_title_time": "800.000 / bulan",
				"promo_title": "PROMO",
				"rating": 4,
				"rating_string": "4.0",
				"review_count": 5,
				"room-title": "Kost Adita Putih Cibeunying Kaler Bandung",
				"share_url": "http://localhost:8000/room/kost-bandung-kost-putri-murah-kost-adita-putih-cibeunying-kaler-bandung-1",
				"size": "2.5 x 4",
				"status": 0,
				"status-title": "null",
				"status_kos": "verified",
				"subdistrict": "Cibeunying Kaler",
				"unique_code": "",
				"unit_type": null,
				"unit_type_rooms": null,
				"updated": "2019-06-09 07:07:44",
				"verification_status": {
					"is_verified_address": true,
					"is_verified_phone": true,
					"is_visited_kost": true,
					"is_verified_kost": true,
					"is_verified_by_mamikos": false
				},
				"as_promoted": true
			},
			{
				"_id": 27496368,
				"address": " ",
				"apartment_project_id": 0,
				"area_label": "Grogol petamburan, Jakarta Barat, Jakarta",
				"available_room": 3,
				"cards": [],
				"checker": false,
				"city": "Jakarta Barat",
				"class": 0,
				"class_badge": null,
				"click_count": 22131,
				"expired_status": null,
				"fac_bath_ids": [],
				"fac_room_ids": [],
				"fac_share_ids": [],
				"floor": "0",
				"furnished_status": "Not Furnished",
				"gender": 2,
				"has_round_photo": false,
				"has_video": false,
				"is_booking": false,
				"is_mamirooms": false,
				"is_premium_owner": false,
				"is_promoted": true,
				"is_top_owner": false,
				"keyword": [null],
				"label": {
					"label": "Bebas 24 Jam",
					"priority": 2
				},
				"label_array": [
					{
						"label": "Bebas 24 Jam",
						"priority": 2
					}
				],
				"last_updated": 1586330792,
				"level_info": {
					"id": 2,
					"name": "Reguler",
					"is_regular": true,
					"flag": null,
					"flag_id": null
				},
				"love_by_me": false,
				"min_month": null,
				"not_updated": false,
				"online": "Lama Tidak Update",
				"owner_phone": "",
				"owner_phone_array": [],
				"photo_count": 0,
				"photo_url": {
					"real": "https://static.mamikos.com/uploads/data/style/2017-08-14/2aHSyq7C.jpg",
					"small": "https://static.mamikos.com/uploads/cache/data/style/2017-08-14/2aHSyq7C-240x320.jpg",
					"medium": "https://static.mamikos.com/uploads/cache/data/style/2017-08-14/2aHSyq7C-360x480.jpg",
					"large": "https://static.mamikos.com/uploads/cache/data/style/2017-08-14/2aHSyq7C-540x720.jpg"
				},
				"price_title": "1.7 jt",
				"price_title_format": {
					"currency_symbol": "Rp",
					"price": "1.700.000",
					"rent_type_unit": "bulan"
				},
				"price_title_time": "1.700.000 / bulan",
				"promo_title": "PROMO",
				"rating": 0,
				"rating_string": "0.0",
				"review_count": 0,
				"room-title": "Kost Seruni Residences Grogol Petamburan Jakarta Barat",
				"share_url": "http://localhost:8000/room/kost-jakarta-barat-kost-putri-eksklusif-kost-seruni-residences-grogol-petamburan-jakarta-barat",
				"size": "3x4",
				"status": 0,
				"status-title": "full",
				"status_kos": "verified",
				"subdistrict": "Grogol petamburan",
				"unique_code": "",
				"unit_type": null,
				"unit_type_rooms": null,
				"updated": "2019-05-22 20:57:49",
				"verification_status": {
					"is_verified_address": true,
					"is_verified_phone": true,
					"is_visited_kost": true,
					"is_verified_kost": true,
					"is_verified_by_mamikos": false
				},
				"as_promoted": true
			}
		]
	}
]
