<svg width="311" height="296" viewBox="0 0 311 296" fill="none" xmlns="http://www.w3.org/2000/svg">
<mask id="mask0" mask-type="alpha" maskUnits="userSpaceOnUse" x="0" y="0" width="297" height="296">
<path d="M148.5 295.875C230.169 295.875 296.375 229.669 296.375 148C296.375 66.3309 230.169 0.125 148.5 0.125C66.8309 0.125 0.625 66.3309 0.625 148C0.625 229.669 66.8309 295.875 148.5 295.875Z" fill="white"/>
</mask>
<g mask="url(#mask0)">
<path d="M148.5 295.875C230.169 295.875 296.375 229.669 296.375 148C296.375 66.3309 230.169 0.125 148.5 0.125C66.8309 0.125 0.625 66.3309 0.625 148C0.625 229.669 66.8309 295.875 148.5 295.875Z" fill="#F8F5FF"/>
<path d="M173.145 292.354H123.854L139.163 218.417H157.836L173.145 292.354Z" fill="url(#paint0_linear)"/>
<path d="M185.786 302.917H111.214C108.473 302.917 106.25 299.548 106.25 295.395V285.793C106.25 281.637 108.473 278.271 111.214 278.271H185.786C188.527 278.271 190.75 281.637 190.75 285.793V295.395C190.75 299.548 188.527 302.917 185.786 302.917Z" fill="#A48FDB"/>
<path d="M254.125 106.367V238.925C254.125 243.155 250.603 246.583 246.255 246.583H50.745C46.3966 246.583 42.875 243.155 42.875 238.925V106.367C42.875 102.135 46.3966 98.7083 50.745 98.7083H246.255C250.603 98.7083 254.125 102.135 254.125 106.367Z" fill="url(#paint1_linear)"/>
<path d="M61.0202 116.312H235.981C238.223 116.312 240.042 118.116 240.042 120.342V196.783C240.042 199.009 238.223 200.812 235.981 200.812H61.0202C58.778 200.812 56.959 199.009 56.959 196.783V120.342C56.959 118.117 58.778 116.312 61.0202 116.312Z" fill="white"/>
<path d="M254.125 221.938V239.478C254.125 243.403 250.603 246.583 246.255 246.583H50.745C46.3966 246.583 42.875 243.403 42.875 239.478V221.938H254.125Z" fill="url(#paint2_linear)"/>
<path d="M240.041 234.26C240.041 237.177 237.677 239.542 234.761 239.542C231.843 239.542 229.479 237.177 229.479 234.26C229.479 231.344 231.843 228.979 234.761 228.979C237.677 228.979 240.041 231.344 240.041 234.26Z" fill="#1BAA56"/>
<path d="M218.916 234.26C218.916 237.177 216.55 239.542 213.635 239.542C210.718 239.542 208.354 237.177 208.354 234.26C208.354 231.344 210.718 228.979 213.635 228.979C216.55 228.979 218.916 231.344 218.916 234.26Z" fill="white"/>
<path d="M213.395 179.688H87.1263C86.0214 179.688 85.125 178.817 85.125 177.742V139.383C85.125 138.308 86.0214 137.438 87.1263 137.438H213.395C214.499 137.438 215.396 138.308 215.396 139.383V177.742C215.396 178.817 214.499 179.688 213.395 179.688Z" fill="#E6DFF7"/>
<path d="M141.033 165.604L134.477 154.933L140.86 148.426H136.818L129.104 156.51V148.426H126.023V165.604H129.104V160.379L132.382 157.052L137.459 165.604H141.033Z" fill="#866DC8"/>
<path d="M149.052 165.851C153.932 165.851 157.259 162.277 157.259 157.027C157.259 151.753 153.956 148.18 149.052 148.18C144.172 148.18 140.845 151.753 140.845 157.027C140.845 162.277 144.172 165.851 149.052 165.851ZM149.052 162.918C145.922 162.918 143.925 160.626 143.925 157.027C143.925 153.405 145.922 151.112 149.052 151.112C152.182 151.112 154.178 153.429 154.178 157.027C154.178 160.601 152.182 162.918 149.052 162.918Z" fill="#866DC8"/>
<path d="M165.25 165.801C168.774 165.801 171.214 163.682 171.214 160.601C171.214 158.137 170.006 156.855 166.31 155.45C163.746 154.44 162.908 153.774 162.908 152.764C162.908 151.729 163.845 150.915 165.077 150.915C166.236 150.915 167.246 151.605 167.838 152.764L170.401 151.186C169.316 149.239 167.493 148.18 165.176 148.18C161.972 148.18 159.828 150.077 159.828 152.912C159.828 155.228 161.109 156.535 164.708 157.939C167.246 158.95 168.133 159.689 168.133 160.872C168.133 162.203 167.024 163.066 165.299 163.066C163.303 163.066 161.947 161.907 161.725 159.985L158.669 160.749C159.162 163.756 161.824 165.801 165.25 165.801Z" fill="#866DC8"/>
<path d="M220.836 182.088L215.88 177.75L220.751 173.487C221.584 172.758 221.204 171.513 220.066 171.247L196.199 165.651C195.061 165.385 194.019 166.295 194.326 167.291L200.72 188.175C201.025 189.171 202.447 189.504 203.28 188.775L208.152 184.512L213.108 188.849C215.244 190.717 218.704 190.717 220.838 188.849C222.972 186.982 222.972 183.954 220.836 182.088Z" fill="url(#paint3_linear)"/>
</g>
<path d="M208.354 81.1042C214.187 81.1042 218.916 76.3752 218.916 70.5417C218.916 64.7082 214.187 59.9792 208.354 59.9792C202.52 59.9792 197.791 64.7082 197.791 70.5417C197.791 76.3752 202.52 81.1042 208.354 81.1042Z" fill="url(#paint4_linear)"/>
<path d="M21.7493 148C23.6939 148 25.2702 146.424 25.2702 144.479C25.2702 142.535 23.6939 140.958 21.7493 140.958C19.8048 140.958 18.2285 142.535 18.2285 144.479C18.2285 146.424 19.8048 148 21.7493 148Z" fill="url(#paint5_linear)"/>
<path d="M60.4792 59.9792C70.2017 59.9792 78.0833 52.0975 78.0833 42.375C78.0833 32.6525 70.2017 24.7708 60.4792 24.7708C50.7567 24.7708 42.875 32.6525 42.875 42.375C42.875 52.0975 50.7567 59.9792 60.4792 59.9792Z" fill="url(#paint6_linear)"/>
<path d="M296.374 148C304.152 148 310.458 141.695 310.458 133.917C310.458 126.139 304.152 119.833 296.374 119.833C288.596 119.833 282.291 126.139 282.291 133.917C282.291 141.695 288.596 148 296.374 148Z" fill="url(#paint7_linear)"/>
<defs>
<linearGradient id="paint0_linear" x1="132.613" y1="296.965" x2="168.057" y2="258.108" gradientUnits="userSpaceOnUse">
<stop stop-color="#E5DBFF"/>
<stop offset="1" stop-color="#7A5EC1"/>
</linearGradient>
<linearGradient id="paint1_linear" x1="101.493" y1="208.875" x2="229.431" y2="80.7799" gradientUnits="userSpaceOnUse">
<stop stop-color="#E5DBFF"/>
<stop offset="1" stop-color="#7A5EC1"/>
</linearGradient>
<linearGradient id="paint2_linear" x1="-5.05752" y1="234.382" x2="283.069" y2="214.696" gradientUnits="userSpaceOnUse">
<stop stop-color="#E5DBFF"/>
<stop offset="1" stop-color="#7A5EC1"/>
</linearGradient>
<linearGradient id="paint3_linear" x1="187.88" y1="184.757" x2="224.593" y2="165.945" gradientUnits="userSpaceOnUse">
<stop stop-color="#E5DBFF"/>
<stop offset="1" stop-color="#7A5EC1"/>
</linearGradient>
<linearGradient id="paint4_linear" x1="192.998" y1="78.1884" x2="221.943" y2="61.2372" gradientUnits="userSpaceOnUse">
<stop stop-color="#E5DBFF"/>
<stop offset="1" stop-color="#7A5EC1"/>
</linearGradient>
<linearGradient id="paint5_linear" x1="16.6308" y1="147.028" x2="26.2792" y2="141.378" gradientUnits="userSpaceOnUse">
<stop stop-color="#E5DBFF"/>
<stop offset="1" stop-color="#7A5EC1"/>
</linearGradient>
<linearGradient id="paint6_linear" x1="34.8862" y1="55.1195" x2="83.1285" y2="26.8676" gradientUnits="userSpaceOnUse">
<stop stop-color="#E5DBFF"/>
<stop offset="1" stop-color="#7A5EC1"/>
</linearGradient>
<linearGradient id="paint7_linear" x1="275.9" y1="144.112" x2="314.494" y2="121.511" gradientUnits="userSpaceOnUse">
<stop stop-color="#E5DBFF"/>
<stop offset="1" stop-color="#7A5EC1"/>
</linearGradient>
</defs>
</svg>
