<svg width="297" height="296" viewBox="0 0 297 296" fill="none" xmlns="http://www.w3.org/2000/svg">
<mask id="mask0" mask-type="alpha" maskUnits="userSpaceOnUse" x="0" y="0" width="297" height="296">
<path d="M148.5 295.875C230.169 295.875 296.375 229.669 296.375 148C296.375 66.3309 230.169 0.125 148.5 0.125C66.8309 0.125 0.625 66.3309 0.625 148C0.625 229.669 66.8309 295.875 148.5 295.875Z" fill="white"/>
</mask>
<g mask="url(#mask0)">
<path d="M148.5 295.875C230.169 295.875 296.375 229.669 296.375 148C296.375 66.3309 230.169 0.125 148.5 0.125C66.8309 0.125 0.625 66.3309 0.625 148C0.625 229.669 66.8309 295.875 148.5 295.875Z" fill="#F8F5FF"/>
<path d="M208.104 226.062L161.726 183.986L152.902 152.024L127.775 143.925C121.679 141.961 115.311 140.958 108.906 140.958C104.385 140.958 99.8805 141.455 95.4668 142.447L30.7589 157.557L25.2705 201.818L63.9624 226.329L134.352 285.501L142.836 293.046C144.883 294.867 147.523 295.875 150.257 295.875H151.267C157.457 295.875 162.479 290.812 162.479 284.572C162.479 281.219 161.003 278.037 158.446 275.886C161.054 278.077 164.339 279.277 167.732 279.277C173.922 279.277 178.945 274.214 178.945 267.974C178.945 264.621 177.468 261.439 174.911 259.288L153.88 241.62L175.822 260.055C177.84 261.749 180.384 262.679 183.007 262.679H184.197C190.388 262.679 195.41 257.616 195.41 251.375C195.41 248.023 193.933 244.84 191.376 242.69L192.242 243.419C194.289 245.14 196.87 246.08 199.531 246.08H200.48C206.775 246.08 211.875 240.939 211.875 234.593C211.875 231.341 210.503 228.237 208.104 226.062Z" fill="url(#paint0_linear)"/>
<path d="M208.305 225.616L162.112 184.235C159.079 181.514 155.132 180.008 151.042 180.008C148.042 180.008 145.101 180.818 142.53 182.354L122.18 194.509C120.184 195.699 117.899 196.331 115.571 196.331C108.479 196.331 102.729 190.609 102.729 183.549V182.468C102.729 177.624 105.479 173.201 109.83 171.035L140.328 155.859C144.364 153.845 148.814 152.801 153.322 152.801C156.023 152.801 158.714 153.176 161.308 153.917L195.661 163.684H201.128L304.992 109.271H310.459V180.008L212.061 228.979L208.305 225.616Z" fill="url(#paint1_linear)"/>
<path d="M148.743 232.5L141.458 240.652L170.502 266.689C172.986 268.911 175.314 270.487 178.41 271.311C179.14 269.752 179.772 267.081 179.772 265.225C179.772 261.809 177.347 258.709 174.906 256.518L148.743 232.5Z" fill="url(#paint2_linear)"/>
<path d="M131.14 250.104L123.854 258.256L152.898 284.294C155.383 286.515 158.313 288.01 161.409 288.833C162.138 287.275 162.584 285.546 162.584 283.691C162.584 280.274 161.174 277.031 158.732 274.84L131.14 250.104Z" fill="url(#paint3_linear)"/>
<path d="M162.827 214.896L155.542 223.047L184.586 249.085C187.07 251.307 191.779 253.641 194.876 254.465C195.605 252.906 195.462 250.409 195.009 248.513C194.215 245.189 190.921 241.733 188.479 239.542L162.827 214.896Z" fill="url(#paint4_linear)"/>
<path d="M180.431 200.812L173.146 208.964L202.189 235.002C204.674 237.224 207.604 238.719 210.7 239.542C211.429 237.983 211.875 236.255 211.875 234.399C211.875 230.983 210.465 227.74 208.024 225.548L180.431 200.812Z" fill="url(#paint5_linear)"/>
<path d="M109.771 276.387C109.771 283.258 115.347 288.833 122.219 288.833C125.523 288.833 128.687 287.524 131.023 285.189L141.334 274.88C143.669 272.544 144.979 269.381 144.979 266.077C144.985 259.201 139.408 253.625 132.536 253.625C129.232 253.625 126.068 254.934 123.732 257.27L113.421 267.579C111.08 269.92 109.771 273.083 109.771 276.387Z" fill="#E1D6FD"/>
<path d="M92.167 258.782C92.167 265.653 97.7437 271.229 104.616 271.229C107.92 271.229 111.084 269.92 113.419 267.585L123.73 257.275C126.066 254.94 127.375 251.777 127.375 248.473C127.381 241.597 121.804 236.021 114.932 236.021C111.628 236.021 108.464 237.33 106.129 239.665L95.8179 249.975C93.4766 252.316 92.167 255.479 92.167 258.782Z" fill="#E1D6FD"/>
<path d="M78.083 241.178C78.083 248.049 83.6597 253.625 90.5317 253.625C93.8359 253.625 96.9997 252.316 99.3352 249.98L109.646 239.671C111.982 237.336 113.291 234.173 113.291 230.869C113.297 223.992 107.72 218.417 100.848 218.417C97.5442 218.417 94.3804 219.726 92.0448 222.061L81.7339 232.37C79.3926 234.711 78.083 237.875 78.083 241.178Z" fill="#E1D6FD"/>
<path d="M100.22 230.294C103.132 227.382 105.133 223.711 106.25 219.776C104.58 218.935 102.719 218.417 100.721 218.417C97.4355 218.417 94.2894 219.719 91.9669 222.042L81.7136 232.295C79.391 234.617 78.083 237.769 78.083 241.055C78.083 243.053 78.6017 244.913 79.4423 246.583C83.3778 245.466 87.0539 243.466 89.9607 240.553L100.22 230.294Z" fill="#CFBFF8"/>
<path d="M114.304 247.898C117.216 244.986 119.217 241.316 120.334 237.38C118.664 236.539 116.803 236.021 114.805 236.021C111.519 236.021 108.373 237.323 106.051 239.646L95.7975 249.899C93.475 252.222 92.167 255.373 92.167 258.659C92.167 260.657 92.6856 262.518 93.5263 264.188C97.4618 263.07 101.138 261.07 104.045 258.157L114.304 247.898Z" fill="#CFBFF8"/>
<path d="M131.907 265.503C134.82 262.59 136.82 258.92 137.937 254.984C136.267 254.144 134.406 253.625 132.409 253.625C129.123 253.625 125.977 254.927 123.654 257.25L113.401 267.503C111.079 269.826 109.771 272.977 109.771 276.263C109.771 278.261 110.289 280.122 111.13 281.792C115.065 280.675 118.741 278.674 121.648 275.762L131.907 265.503Z" fill="#CFBFF8"/>
<path d="M60.4795 223.574C60.4795 230.445 66.0562 236.021 72.9282 236.021C76.2324 236.021 79.3962 234.711 81.7317 232.376L92.0426 222.067C94.3782 219.732 95.6878 216.569 95.6878 213.265C95.6936 206.388 90.1168 200.812 83.2448 200.812C79.9406 200.812 76.7769 202.122 74.4413 204.457L64.1304 214.766C61.7891 217.107 60.4795 220.27 60.4795 223.574Z" fill="#E1D6FD"/>
<path d="M63.9997 148L30.3239 156.484L25.2705 200.444L46.424 214.896L63.9997 148Z" fill="#CBBAF5"/>
<path d="M60.4792 138.718L37.3423 214.896H31.558L-20.5 198.572V95.1875H-8.93155L60.4792 133.277V138.718Z" fill="#E6DFF7"/>
<path d="M39.3538 121.219L-5.78661 95.1875H-16.9795V200.31L16.5992 211.375L38.9849 122.851L39.3538 121.219Z" fill="url(#paint6_linear)"/>
<path d="M82.6161 212.69C85.5286 209.778 87.5291 206.107 88.6462 202.172C86.9762 201.331 85.1153 200.812 83.1177 200.812C79.832 200.812 76.6859 202.115 74.3633 204.437L64.11 214.691C61.7875 217.013 60.4795 220.165 60.4795 223.451C60.4795 225.448 60.9981 227.309 61.8388 228.979C65.7743 227.862 69.4504 225.862 72.3571 222.949L82.6161 212.69Z" fill="#CFBFF8"/>
</g>
<path d="M264.688 81.1042C270.521 81.1042 275.25 76.3752 275.25 70.5417C275.25 64.7082 270.521 59.9792 264.688 59.9792C258.854 59.9792 254.125 64.7082 254.125 70.5417C254.125 76.3752 258.854 81.1042 264.688 81.1042Z" fill="url(#paint7_linear)"/>
<path d="M28.7917 207.854C32.6807 207.854 35.8333 204.701 35.8333 200.812C35.8333 196.924 32.6807 193.771 28.7917 193.771C24.9027 193.771 21.75 196.924 21.75 200.812C21.75 204.701 24.9027 207.854 28.7917 207.854Z" fill="url(#paint8_linear)"/>
<path d="M85.1247 81.1042C94.8472 81.1042 102.729 73.2225 102.729 63.5C102.729 53.7775 94.8472 45.8958 85.1247 45.8958C75.4022 45.8958 67.5205 53.7775 67.5205 63.5C67.5205 73.2225 75.4022 81.1042 85.1247 81.1042Z" fill="url(#paint9_linear)"/>
<defs>
<linearGradient id="paint0_linear" x1="35.7162" y1="230.654" x2="209.583" y2="194.313" gradientUnits="userSpaceOnUse">
<stop stop-color="#E5DBFF"/>
<stop offset="1" stop-color="#7A5EC1"/>
</linearGradient>
<linearGradient id="paint1_linear" x1="153.018" y1="189.002" x2="480.604" y2="-8.52526" gradientUnits="userSpaceOnUse">
<stop stop-color="#E5DBFF"/>
<stop offset="1" stop-color="#7A5EC1"/>
</linearGradient>
<linearGradient id="paint2_linear" x1="197.286" y1="273.555" x2="172.363" y2="232.784" gradientUnits="userSpaceOnUse">
<stop stop-color="#E5DBFF"/>
<stop offset="1" stop-color="#A691DA"/>
</linearGradient>
<linearGradient id="paint3_linear" x1="115.067" y1="283.488" x2="168.133" y2="252.411" gradientUnits="userSpaceOnUse">
<stop stop-color="#E5DBFF"/>
<stop offset="1" stop-color="#7A5EC1"/>
</linearGradient>
<linearGradient id="paint4_linear" x1="214.594" y1="256.449" x2="188.753" y2="215.007" gradientUnits="userSpaceOnUse">
<stop stop-color="#E5DBFF"/>
<stop offset="1" stop-color="#A691DA"/>
</linearGradient>
<linearGradient id="paint5_linear" x1="230.546" y1="241.781" x2="205.177" y2="200.812" gradientUnits="userSpaceOnUse">
<stop stop-color="#E5DBFF"/>
<stop offset="1" stop-color="#A691DA"/>
</linearGradient>
<linearGradient id="paint6_linear" x1="1.56104" y1="195.338" x2="54.737" y2="131.109" gradientUnits="userSpaceOnUse">
<stop stop-color="#E5DBFF"/>
<stop offset="1" stop-color="#7A5EC1"/>
</linearGradient>
<linearGradient id="paint7_linear" x1="249.332" y1="78.1884" x2="278.277" y2="61.2372" gradientUnits="userSpaceOnUse">
<stop stop-color="#E5DBFF"/>
<stop offset="1" stop-color="#7A5EC1"/>
</linearGradient>
<linearGradient id="paint8_linear" x1="18.5545" y1="205.91" x2="37.8514" y2="194.61" gradientUnits="userSpaceOnUse">
<stop stop-color="#E5DBFF"/>
<stop offset="1" stop-color="#7A5EC1"/>
</linearGradient>
<linearGradient id="paint9_linear" x1="59.5318" y1="76.2446" x2="107.774" y2="47.9926" gradientUnits="userSpaceOnUse">
<stop stop-color="#E5DBFF"/>
<stop offset="1" stop-color="#7A5EC1"/>
</linearGradient>
</defs>
</svg>
