[
	{
		"checked": false,
		"label": "Ada pesan untuk Admin",
		"value": "remark-message_for_admin"
	},
	{
		"checked": false,
		"label": "Memiliki kontrak aktif",
		"value": "remark-has_active_contract"
	},
	{
		"checked": false,
		"label": "Ada di data Booking",
		"value": "remark-has_booking_data"
	},
	{
		"checked": false,
		"label": "Sudah bayar ke pemilik",
		"value": "remark-has_paid_to_owner"
	},
	{
		"checked": false,
		"label": "Menolak bayar di MamiPAY",
		"value": "remark-reject_payment_to_mamipay"
	},
	{
		"checked": false,
		"label": "Pemilik Menolak dibayar di MamiPAY",
		"value": "remark-owner_reject_payment_to_mamipay"
	},
	{
		"checked": false,
		"label": "Tidak menempati kos",
		"value": "remark-does_not_inhabit_room"
	},
	{
		"checked": false,
		"label": "Ingin konfirmasi ke pemilik",
		"value": "remark-want_to_confirm_to_owner"
	},
	{
		"checked": false,
		"label": "Nomor HP tidak dapat dihubungi",
		"value": "remark-phone_number_unreachable"
	},
	{
		"checked": false,
		"label": "Tidak merespon Chat",
		"value": "remark-chat_unresponsive"
	},
	{
		"checked": false,
		"label": "Lainnya",
		"value": "remark-other"
	}
]
