[
	{
		"title": "Jogja",
		"kostList": [
			{
				"name": "Kos Dekat UGM Jogja",
				"url": "/kost/kost-dekat-ugm-murah"
			}
		]
	},
	{
		"title": "Bandung",
		"kostList": [
			{
				"name": "Kos Dekat ITB Bandung",
				"url": "/kost/kost-dekat-itb-murah"
			}
		]
	}
]
