// Jest Snapshot v1, https://goo.gl/fbAQLP

exports[`ConsultantRadioGroup.vue Should render legend and match snapshot 1`] = `
<div
  class="radio-group__legend"
>
  
			Radio Legend
		
</div>
`;

exports[`ConsultantRadioGroup.vue Should render radio as inline 1`] = `
<div
  class="consultant-radio-group radio-group--inline"
>
  <div
    class="radio-group__legend"
  >
    
			Radio Legend
		
  </div>
   
  <div
    class="radio-group__content"
  />
</div>
`;

exports[`ConsultantRadioGroup.vue Should render radio component and match snapshot 1`] = `
<div
  class="consultant-radio-group"
>
  <!---->
   
  <div
    class="radio-group__content"
  />
</div>
`;

exports[`ConsultantRadioGroup.vue Should render radio's subtitle 1`] = `
<div class="radio-group__content">
  <div class="ct-radio__subtitle">
    test
  </div>
</div>
`;
