// Jest Snapshot v1, https://goo.gl/fbAQLP

exports[`ManageInputRentDuration.vue should render component properly 1`] = `
<div
  class="form-group"
>
  <label
    for="inputStatus"
  >
    Durasi Sewa
  </label>
   
  <select
    class="form-control input-select-custom"
    id="inputStatus"
  >
    <option
      disabled="disabled"
      selected="selected"
      value=""
    >
      Pilih durasi sewa
    </option>
     
    <option
      value="1"
    >
      1 Bulan
    </option>
    <option
      value="2"
    >
      2 Bulan
    </option>
  </select>
</div>
`;
