[
	{
		"label": "Harga & Masa Sewa",
		"mobileLabel": "Pengajuan Sewa",
		"routeName": "booking-date",
		"input": true,
		"path": "/date"
	},
	{
		"label": "Data Penyewa",
		"mobileLabel": "Pengajuan Sewa",
		"routeName": "tenant-info",
		"path": "/tenant-info",
		"input": true
	},
	{
		"mobileLabel": "Ringkasan Pengajuan Sewa",
		"routeName": "booking-summary"
	}
]
