// Jest Snapshot v1, https://goo.gl/fbAQLP

exports[`LandingChildTitle.vue Component should match the snapshot 1`] = `
<div>
  <div class="child-title hidden-sm hidden-xs col-md-12"><span><h4><strong>Kost Jakarta</strong></h4></span></div>
  <div data-toggle="collapse" data-target="1" class="child-title hidden-lg hidden-md col-md-12"><span><h4><strong>Kost Jakarta</strong></h4></span> <i aria-hidden="true" class="fa fa-chevron-down"></i></div>
</div>
`;
