<svg xmlns="http://www.w3.org/2000/svg" width="134.125" height="28.602" viewBox="0 0 134.125 28.602">
  <path id="Union_1" data-name="Union 1" d="M33.485,22.652,33,23l.485-.348L0,0,33.485,22.652,64.463.386,64,0l.463.386L65,0l-.537.386L87.5,19.583,110.466.444,110,0l.467.444L111,0l-.533.444L131,20,110.466.444,87.5,19.583,88,20l-.5-.417L87,20l.5-.417L64.463.386,33.485,22.652,34,23Z" transform="translate(1.401 2.902)" fill="none" stroke="#090808" stroke-width="5"/>
</svg>
