{
   "status": true,
   "meta": {
      "response_time": "12591594 ms",
      "response_code": 200,
      "code": 200,
      "severity": "OK",
      "message": "The request has succeeded. An entity corresponding to the requested resource is sent in the response."
   },
   "form": [{
         "id": 0,
         "type": "text",
         "label": "Label Text",
         "placeholder": "Placeholder Text",
         "values": [],
         "order": "4"
      },
      {
         "id": 1,
         "type": "date",
         "label": "Label Date",
         "placeholder": "Placeholder Date",
         "values": [],
         "order": "1"
      },
      {
         "id": 2,
         "type": "text_area",
         "label": "Label Textarea",
         "placeholder": "Placeholder Textarea",
         "values": [],
         "order": "3"
      },
      {
         "id": 3,
         "type": "radio",
         "label": "Label Radio",
         "placeholder": "Placholder Radio",
         "values": [1, 2, 3, 4, 5],
         "order": "2"
      },
      {
         "id": 4,
         "type": "file",
         "label": "Label File",
         "placeholder": "Placeholder FIle",
         "values": [],
         "order": "5"
      },
      {
         "id": 5,
         "type": "number",
         "label": "Label Number",
         "placeholder": "12345",
         "values": [],
         "order": "6"
      },
      {
         "id": 6,
         "type": "time",
         "label": "Label Time",
         "placeholder": "12:21",
         "values": [],
         "order": "7"
      },
      {
         "id": 7,
         "type": "select",
         "label": "Label Select",
         "placeholder": "Placeholder Select",
         "values": [1, 2, 3, 4, 5],
         "order": "8"
      },
      {
         "id": 8,
         "type": "checkbox",
         "label": "Label Checkbox",
         "placeholder": "Placeholder Checkbox",
         "values": [1, 2, 3, 4, 5],
         "order": "9"
      },
      {
         "id": 9,
         "type": "checkbox",
         "label": "Label Checkbox",
         "placeholder": "Placeholder Checkbox",
         "values": ["a", "b", "c", "d", "e"],
         "order": "10"
      }
   ]
}