// Jest Snapshot v1, https://goo.gl/fbAQLP

exports[`CreateContractSuccessPage.vue Should render component and match snapshot 1`] = `
<div class="consultant-success-page is-page--open">
  <div class="success-page__header">
    <div class="mamikos-logo"><img alt="logo mamikos white" title="Mamikos logo" data-src="/general/img/logo/logo_mamikos_white.svg"></div>
    <div class="header__title">
      Konsultan Mamikos
    </div>
  </div>
  <div class="success-page__body">
    <div class="body__image"><img src="/general/img/pictures/consultant/property_room-price-success.svg" alt="property room price success" title="Property room and price success"></div>
    <div class="body__caption">
      <h4 class="text--success">Kontrak berhasil dibuat</h4>
    </div>
    <div class="body__button">
      <div class="row">
        <div class="col-xs-12 px-2">
          <p class="caption">
            Klik tambah kontrak baru apabila kamu ingin menambahkan kontrak lagi
          </p>
        </div>
        <div class="col-xs-12 mb-1"><button large="" block=""></button></div>
        <div class="col-xs-12"><button large="" block="" flat=""></button></div>
      </div>
    </div>
  </div>
</div>
`;

exports[`CreateContractSuccessPage.vue Should render component differently when entered from potential tenant 1`] = `
<div class="consultant-success-page is-page--open">
  <div class="success-page__header">
    <div class="mamikos-logo"><img alt="logo mamikos white" title="Mamikos logo" data-src="/general/img/logo/logo_mamikos_white.svg"></div>
    <div class="header__title">
      Konsultan Mamikos
    </div>
  </div>
  <div class="success-page__body">
    <div class="body__image"><img src="/general/img/pictures/consultant/property_room-price-success.svg" alt="property room price success" title="Property room and price success"></div>
    <div class="body__caption">
      <h4 class="text--success">Kontrak berhasil dibuat</h4>
    </div>
    <div class="body__button">
      <div class="row">
        <div class="col-xs-12"><button large="" block=""></button></div>
      </div>
    </div>
  </div>
</div>
`;
