// Jest Snapshot v1, https://goo.gl/fbAQLP

exports[`PropertyDetails.vue Should render component and match snapshot 1`] = `
<div class="property-detail" open="open">
  <div class="row">
    <div class="col-xs-12">
      <consultant-select-stub value="monthly" legend="Hitungan Sewa" placeholder="Pilih hitungan sewa" options="[object Object],[object Object],[object Object],[object Object],[object Object]" itemvalue="value" insensitive="true" regular="true" mandatorysign="true" clearbutton="true"></consultant-select-stub>
    </div>
    <div class="col-xs-12">
      <input-currency-stub value="6570000" label="Harga Sewa" mandatorysign="true" currency="Rp" separator="." min="0"></input-currency-stub>
      <div class="persistent-hint text--red">
        Anda menulis sebelumnya
      </div>
    </div>
    <div class="col-xs-12">
      <input-field-stub value="" name="" legend="Nomor Kamar" rules="required|alpha_num" readonly="true" rounded="3" mandatorysign="true" inputdelay="500" placeholder="Tulis nomor kamar" regular=""></input-field-stub>
    </div>
    <div class="col-xs-12"><label class="mandatory-sign">Tanggal Masuk</label>
      <consultant-datepicker-stub format="function () { [native code] }" classname="datepicker-left start-date-contract" disableddates="[object Object]" label="" placeholder="Pilih tanggal masuk"></consultant-datepicker-stub>
      <!---->
    </div>
    <div class="col-xs-12">
      <consultant-select-stub value="" legend="Durasi Sewa" placeholder="Pilih durasi sewa" options="[object Object],[object Object],[object Object],[object Object],[object Object],[object Object],[object Object],[object Object],[object Object],[object Object],[object Object],[object Object]" itemvalue="value" insensitive="true" regular="true" mandatorysign="true" clearbutton="true"></consultant-select-stub>
    </div>
    <div class="col-xs-12">
      <add-other-costs-stub value="" label="Tambahan Biaya Tetap"><template></template></add-other-costs-stub>
    </div>
    <div class="col-xs-12">
      <add-other-costs-stub value="" label="Tambahan Biaya Lain"><template></template></add-other-costs-stub>
    </div>
    <div class="col-xs-12">
      <add-penalty-cost-stub value="[object Object]" updatedvalue="[object Object]"></add-penalty-cost-stub>
    </div>
    <div class="col-xs-12">
      <input-field-stub value="" name="" legend="Catatan" rules="min:3" rounded="3" inputdelay="500" placeholder="Jelaskan catatan di sini" regular=""></input-field-stub>
    </div>
    <div class="col-xs-12"><button large="" block="" disabled="disabled" loading-text="Menyimpan..."></button></div>
    <create-contract-success-page-stub></create-contract-success-page-stub>
  </div>
</div>
`;
