// Jest Snapshot v1, https://goo.gl/fbAQLP

exports[`TenantInformations.vue Should render component and match snapshot 1`] = `
<div class="tenant-informations">
  <div class="row">
    <div class="col-xs-12"><input legend="Nama" placeholder="Tulis nama penyewa disini" rules="required" mandatory-sign="" regular=""></div>
    <div class="col-xs-12"><input legend="Nomor HP" placeholder="Tulis nomor HP disini" rules="required|phone" mandatory-sign="" regular="" type="tel"></div>
    <div class="col-xs-12"><input legend="Email" placeholder="Tulis email valid disini" rules="required|email" mandatory-sign="" regular="" type="email"></div>
    <div class="col-xs-12">
      <consultant-select-stub legend="Jenis Kelamin" placeholder="Pilih jenis kelamin" options="[object Object],[object Object]" itemvalue="value" insensitive="true" regular="true" mandatorysign="true" clearbutton="true"></consultant-select-stub>
    </div>
    <div class="col-xs-12">
      <identity-uploader-stub value="[object Object]"></identity-uploader-stub>
    </div>
    <div class="col-xs-12">
      <consultant-select-stub legend="Status" placeholder="Pilih status" options="[object Object],[object Object],[object Object]" itemvalue="value" insensitive="true" regular="true" mandatorysign="true" clearbutton="true"></consultant-select-stub>
    </div>
    <div class="col-xs-12">
      <consultant-select-stub legend="Okupasi" placeholder="Okupasi" options="[object Object],[object Object]" itemvalue="value" insensitive="true" regular="true" mandatorysign="true" clearbutton="true"></consultant-select-stub>
    </div>
    <!---->
    <div class="col-xs-12 mt-3"><button large="" block="" outline="" disabled="disabled"></button></div>
  </div>
</div>
`;
