// Jest Snapshot v1, https://goo.gl/fbAQLP

exports[`DetailCard.vue Should render default slot and match snapshot 1`] = `
<div class="consultant-detail-card">
  <div class="detail-card__content">
    <div class="detail-card-header"></div>
    <div></div>
  </div>
</div>
`;

exports[`DetailCard.vue Should render header slot and match snapshot 1`] = `
<div class="consultant-detail-card">
  <div class="detail-card__content">
    <div class="detail-card-header">test header slot</div>
  </div>
</div>
`;
