[
	{
		"label": "Jenis Kelamin",
		"key": "gender",
		"value": "",
		"type": "gender"
	},
	{
		"label": "Nomor HP",
		"key": "phone_number",
		"value": "",
		"type": "phone"
	},
	{
		"label": "Email",
		"key": "email",
		"value": "",
		"type": "email"
	},
	{
		"label": "Nomor Penanggung Jawab",
		"key": "parent_phone_number",
		"value": "",
		"type": "phone"
	},
	{
		"label": "Okupasi",
		"key": "occupation",
		"value": "",
		"type": "text"
	},
	{
		"label": "Gambar",
		"key": "images",
		"type": "images",
		"value": [
			{
				"title": "KTP",
				"key": "photo_identifier",
				"url": {}
			},
			{
				"title": "Selfi dengan KTP",
				"key": "photo_document",
				"url": {}
			}
		]
	},
	{
		"label": "Properti yang dihuni",
		"key": "room_name",
		"value": "",
		"type": "value_as_label"
	},
	{
		"label": "",
		"key": "price_unit",
		"value": 0,
		"type": "price"
	},
	{
		"label": "Tanggal Masuk",
		"key": "start_date",
		"value": "",
		"type": "date",
		"format": "DD MMM YYYY"
	},
	{
		"label": "Tanggal Keluar",
		"key": "end_date",
		"value": "",
		"type": "date",
		"format": "DD MMM YYYY"
	},
	{
		"label": "Jatuh Tempo",
		"key": "scheduled_date",
		"value": "",
		"type": "date",
		"format": "DD MMM YYYY"
	},
	{
		"label": "Durasi Sewa",
		"key": "duration",
		"value": 0,
		"type": "text"
	}
]
