<?xml version="1.0" encoding="UTF-8"?>
<svg viewBox="0 0 189.37 129.1" xmlns="http://www.w3.org/2000/svg">
<defs>
<style>.cls-1, .cls-12, .cls-8 {
        fill: #1baa56;
      }
      .cls-1 {
        opacity: 0.1;
      }
      .cls-2 {
        fill: #b5f7cc;
      }
      .cls-3 {
        fill: #99e0af;
      }
      .cls-4 {
        clip-path: url(#a);
      }
      .cls-10, .cls-5 {
        fill: #f4b18e;
      }
      .cls-6 {
        fill: #eaa486;
      }
      .cls-7 {
        fill: #109e4b;
      }
      .cls-9 {
        fill: #2e2d39;
      }
      .cls-10, .cls-11, .cls-12, .cls-13, .cls-9 {
        fill-rule: evenodd;
      }
      .cls-11 {
        fill: rgba(229,22,133,0.2);
      }
      .cls-13 {
        fill: #fff;
      }
      .cls-14 {
        fill: #ffd65c;
      }
      .cls-15 {
        fill: #e3bc44;
      }</style>
<clipPath id="a">
<path d="m180.73 71.55c26.16 26.16 16.46 93.45-43.55 93.45-38.95 0-45.29-14.53-57.81-19.73-1.32-0.55-6.02 3.72-7.52 3.4-1.38-0.29 0.46-5.17-1.15-5.22-5.62-0.15-12.85 1.31-23.19 5.33-47.05 18.28-50.86-36.2-31.54-60.13 11.21-13.89 29.72-31.18 52.49-41.6 5.06-2.32 9.1-9.06 14.55-10.59 6.78-1.9 15.07 1.66 22.34 1.38 23.63-0.93 49.49 7.82 75.38 33.71z" data-name="Path 3637"/>
</clipPath>
</defs>
<g transform="translate(-5.035 -35.899)" data-name="Mamikos Illustration_permintaan booking di proses">
<path class="cls-1" d="m180.73 71.55c26.16 26.16 16.46 93.45-43.55 93.45s-42.61-34.5-89.66-16.22-50.86-36.2-31.54-60.13c26.89-33.31 95.71-86.14 164.75-17.1z" data-name="Path 3632"/>
<g data-name="Group 2449">
<path class="cls-2" d="m28.6 94.01 3.58 4.04 18.87-3.29z" data-name="Path 3633"/>
<path class="cls-3" d="M32.18,98.05l.54,2.2,18.33-5.49Z" data-name="Path 3634"/>
</g>
<g data-name="Group 2450">
<path class="cls-3" d="M158.86,86.07l.56,3.56,10.09-4.43-9.26.13Z" data-name="Path 3635"/>
<path class="cls-2" d="m159.93 84.54-1.07 1.53 7.08-0.7-7.8 1.6-1.63 2 13.88-4.03z" data-name="Path 3636"/>
</g>
<g data-name="Group 2463">
<g class="cls-4" data-name="Group 2451">
<ellipse class="cls-2" transform="matrix(.987 -.159 .159 .987 -60.308 161.14)" cx="63.14" cy="3.23" rx="63.14" ry="3.23" data-name="Ellipse 443"/>
<ellipse class="cls-2" transform="matrix(.987 -.159 .159 .987 -88.3 164.89)" cx="63.14" cy="7.2" rx="63.14" ry="7.2" data-name="Ellipse 444"/>
<ellipse class="cls-2" transform="matrix(.987 -.159 .159 .987 -111.61 161.34)" cx="63.14" cy="7.2" rx="63.14" ry="7.2" data-name="Ellipse 445"/>
</g>
<g class="cls-4" data-name="Group 2452">
<ellipse class="cls-2" transform="matrix(.987 -.159 .159 .987 172.78 147.04)" cx="56" cy="2.86" rx="56" ry="2.86" data-name="Ellipse 446"/>
<ellipse class="cls-2" transform="matrix(.987 -.159 .159 .987 147.96 150.36)" cx="56" cy="6.39" rx="56" ry="6.39" data-name="Ellipse 447"/>
<ellipse class="cls-2" transform="matrix(.987 -.159 .159 .987 127.29 147.22)" cx="56" cy="6.39" rx="56" ry="6.39" data-name="Ellipse 448"/>
</g>
<g class="cls-4" data-name="Group 2453">
<ellipse class="cls-2" transform="matrix(.987 -.159 .159 .987 22.125 82.051)" cx="19.04" cy=".97" rx="19.04" ry=".97" data-name="Ellipse 449"/>
<ellipse class="cls-2" transform="matrix(.987 -.159 .159 .987 13.683 83.176)" cx="19.04" cy="2.17" rx="19.04" ry="2.17" data-name="Ellipse 450"/>
<ellipse class="cls-2" transform="matrix(.987 -.159 .159 .987 6.664 82.114)" cx="19.04" cy="2.17" rx="19.04" ry="2.17" data-name="Ellipse 451"/>
</g>
<g class="cls-4" data-name="Group 2460">
<g data-name="Group 2454">
<path class="cls-5" d="m88.45 94.58c0.61-1.99 3.41-6.08 3.41-6.08l2.9-3.71-4.47-3.15s-6.54 8.72-7.48 11.1 0.04 3.58-0.35 7.32c2.36 0.13 5.97-5.44 5.99-5.48z" data-name="Path 3640"/>
<path class="cls-5" d="M87.1,108.94s.04-10.61,1.35-14.36l-5.7-1.66c-1.36,3.93.05,12.27.53,15.7l3.78.38A.458.458,0,0,0,87.1,108.94Z" data-name="Path 3641"/>
</g>
<path class="cls-6" d="m90.38 81.64s0.18 8.43-0.28 9.62a4.774 4.774 0 0 0 2-3.56c0-2.2-1.21-5.88-1.72-6.06z" data-name="Path 3642"/>
<path class="cls-6" d="M140.46,70.75s1.21.11,1.23.81a2.677,2.677,0,0,1-.62,1.89,9.125,9.125,0,0,1-2.29.75l-1.5-1.23V71.7l.15-.18Z" data-name="Path 3643"/>
<path class="cls-5" d="M109.78,77.99s14.18-4.67,17.75-5.37c3.76-.74,8.4-2.31,9.32-2.5s6.3-1.05,6.94-.71-5.16,2.29-5.16,2.29-.32,1.63,1.98,1.07,1.93.59.68,1.09-3.42,1.86-5,.79-26.06,11.44-26.06,11.44-4.03-5.2-4.03-5.33S109.78,77.99,109.78,77.99Z" data-name="Path 3644"/>
<g data-name="Group 2456">
<g data-name="Group 2455">
<path class="cls-6" d="M109.78,77.99a9.17,9.17,0,0,0,.44,8.09s.32-.16.89-.45c-2-2.63-1.33-7.64-1.33-7.64Z" data-name="Path 3645"/>
<path class="cls-6" d="M109.78,77.99l-3.29,2.48q-.165.135-.24.21l.1.31c.73,1.04,3.88,5.09,3.88,5.09A9.152,9.152,0,0,1,109.78,77.99Z" data-name="Path 3646"/>
</g>
</g>
<path class="cls-5" d="M96,77.78l-.56,3.62,1.52,4.69,4.48,1.5s1.42-3.09,1.45-3.29.71-3.4.71-3.4l-.17-.24-2.78-4.59Z" data-name="Path 3647"/>
<path class="cls-6" d="M102.48,79.1a9.082,9.082,0,0,1-6.96,3.55l-.08-1.25.12-.73Z" data-name="Path 3648"/>
<path class="cls-7" d="m111.73 106.44s-1.02 4.97-3.63 5.15-23.48-1.07-23.48-1.07l2.41-5.83 19.75-7.78z" data-name="Path 3649"/>
<path class="cls-8" d="M90.38,81.64s1.85,7.15-.28,9.62c0,0-.37,5.59-1.2,7.86s-2.16,6.52-2.16,6.52,8.53-2.52,12.33-2.72,12.47,4.79,13.01,3.26-3.73-15.01-1.85-20.09a9.17,9.17,0,0,1-.44-8.09s-6.3,1.36-6.6,2.45-.77,4.95-4.03,4.66-3.71-3.7-3.71-3.7Z" data-name="Path 3650"/>
<path class="cls-5" d="M83.05,108.73S94.4,98.72,97.66,98.87s6.57,2.62,4.89,4.64-5.23,7.01-5.23,7.01H83.05Z" data-name="Path 3651"/>
<path class="cls-5" d="M107.09,110.99s4.61-3.42,4.94-5.3-.92-3.06-3.19-3.16-11.75,5.5-11.75,5.5l-.89,3.89Z" data-name="Path 3652"/>
<g data-name="Group 2458">
<path class="cls-9" d="M114.4,63.54a5.844,5.844,0,0,0-1.22-10.39,10.724,10.724,0,0,0-.22-1.86c-1.32-6.45-8.07-10.56-15.28-9.44a7.79,7.79,0,0,0-7.52-2.37,7.932,7.932,0,0,0-5.72,4.43,14.9,14.9,0,0,0-2.16.29c-.4.08-.79.18-1.18.29a5.343,5.343,0,0,0-3.38-.42,5.583,5.583,0,0,0-4.37,5.74,11.773,11.773,0,0,0-2.27,8.46,6.67,6.67,0,0,0,2.58,12.65,5.916,5.916,0,0,0,.06,2.05,5.635,5.635,0,0,0,6.56,4.52c.09-.02.18-.04.26-.06a6.337,6.337,0,0,0,6.24,2.36,6.469,6.469,0,0,0,4.89-7.75,6.76,6.76,0,0,0-2.68-4.15,14.885,14.885,0,0,0,4.51-2.4,14.345,14.345,0,0,0,3.72.89,6.717,6.717,0,0,0-.23,3.6,6.475,6.475,0,0,0,7.55,5.2,6.212,6.212,0,0,0,4.37-3.45,5.15,5.15,0,0,0,1.7-.07,5.625,5.625,0,0,0,4.25-6.73,5.406,5.406,0,0,0-.46-1.39Z" data-name="Path 3653"/>
<path class="cls-10" d="m98.59 80.61a12.455 12.455 0 0 1-14.66-9.68l-1.03-5.04a6.177 6.177 0 0 1 4.8-7.27l12.27-2.51a6.177 6.177 0 0 1 7.27 4.8l1.03 5.04a12.463 12.463 0 0 1-9.68 14.66z" data-name="Path 3654"/>
<path class="cls-9" d="M102.54,64.47a.947.947,0,1,0,1.19.72A.981.981,0,0,0,102.54,64.47Z" data-name="Path 3655"/>
<path class="cls-9" d="m96.23 65.55a1.142 1.142 0 1 0 1.44 0.87 1.186 1.186 0 0 0-1.44-0.87z" data-name="Path 3656"/>
<path class="cls-9" d="M96.94,63.51l-5.12.34a.39.39,0,0,0-.36.41h0a.39.39,0,0,0,.41.36l5.12-.34a.39.39,0,0,0,.36-.41h0A.4.4,0,0,0,96.94,63.51Z" data-name="Path 3657"/>
<path class="cls-6" d="m83.09 66.84-0.19-0.95a6.177 6.177 0 0 1 4.8-7.27l12.27-2.51a6.177 6.177 0 0 1 7.27 4.8l0.34 1.68-0.01 0.01s-3.21-4.04-4.91-4.03-2.62 1.06-3.78 0.77-8.61 1.43-9.05 1.92-2.16 0.29-3.08 0.16c0 0 0.27 3.41-3.66 5.42z" data-name="Path 3658"/>
<path class="cls-9" d="M101.51,63.28l3.99-1.41a.327.327,0,0,1,.41.19h0a.327.327,0,0,1-.19.41l-3.99,1.41a.327.327,0,0,1-.41-.19h0A.315.315,0,0,1,101.51,63.28Z" data-name="Path 3659"/>
<path class="cls-11" d="m92.09 69.02a2.759 2.759 0 1 0 3.37 2.12 2.82 2.82 0 0 0-3.37-2.12z" data-name="Path 3660"/>
<path class="cls-11" d="M106.86,67.54a2.537,2.537,0,0,1,1.62.21,12.469,12.469,0,0,1-.54,4.4c-.04.01-.08.03-.13.04a2.375,2.375,0,1,1-.95-4.65Z" data-name="Path 3661"/>
<path class="cls-9" d="m83.43 68.04a4.211 4.211 0 1 0 4.93 3.29 4.181 4.181 0 0 0-4.93-3.29z" data-name="Path 3662"/>
<path class="cls-9" d="m83.8 55.27a5.405 5.405 0 1 0 6.33 4.22 5.377 5.377 0 0 0-6.33-4.22z" data-name="Path 3663"/>
<g data-name="Group 2457">
<path class="cls-12" d="m103.11 53.92-10.3 1.64a1.205 1.205 0 0 0-0.95 1.4l0.44 2.79a1.2 1.2 0 0 0 1.33 1.03l10.3-1.64a1.205 1.205 0 0 0 0.95-1.4l-0.44-2.79a1.185 1.185 0 0 0-1.33-1.03z" data-name="Path 3664"/>
<path class="cls-9" d="M103.07,52.3l-9.78,1.56.92,5.79a1.828,1.828,0,0,0,2.09,1.51l6.18-.99a1.828,1.828,0,0,0,1.51-2.09Z" data-name="Path 3665"/>
</g>
<path class="cls-8" d="M81.81,52.21a4.686,4.686,0,0,1,1.64,2.52A6.07,6.07,0,0,1,83.5,58a3.191,3.191,0,0,1-1.57,2.11,2.215,2.215,0,0,1-2.28-.3,4.686,4.686,0,0,1-1.64-2.52,6.07,6.07,0,0,1-.05-3.27,3.191,3.191,0,0,1,1.57-2.11A2.212,2.212,0,0,1,81.81,52.21Zm-3.04,4.73a3.425,3.425,0,0,0,1.18,1.83,1.549,1.549,0,0,0,1.63.21,2.3,2.3,0,0,0,1.13-1.52,4.352,4.352,0,0,0-.04-2.37,3.38,3.38,0,0,0-1.19-1.83,1.549,1.549,0,0,0-1.63-.21,2.3,2.3,0,0,0-1.13,1.52A4.559,4.559,0,0,0,78.77,56.94Z" data-name="Path 3666"/>
<path class="cls-8" d="M109.15,47.24a3.962,3.962,0,0,1,1.37,2.11,5.076,5.076,0,0,1,.04,2.73,2.658,2.658,0,0,1-1.31,1.76,1.839,1.839,0,0,1-1.9-.25,3.962,3.962,0,0,1-1.37-2.11,5.076,5.076,0,0,1-.04-2.73,2.658,2.658,0,0,1,1.31-1.76A1.864,1.864,0,0,1,109.15,47.24Zm-2.54,3.95a2.829,2.829,0,0,0,.99,1.53,1.3,1.3,0,0,0,1.36.18,1.9,1.9,0,0,0,.94-1.26,3.611,3.611,0,0,0-.03-1.98,2.829,2.829,0,0,0-.99-1.53,1.3,1.3,0,0,0-1.36-.18,1.9,1.9,0,0,0-.94,1.26A3.611,3.611,0,0,0,106.61,51.19Z" data-name="Path 3667"/>
<path class="cls-8" d="M112.34,63.93a2.712,2.712,0,0,1,.95,1.46,3.478,3.478,0,0,1,.03,1.89,1.863,1.863,0,0,1-.91,1.22,1.282,1.282,0,0,1-1.31-.17,2.712,2.712,0,0,1-.95-1.46,3.478,3.478,0,0,1-.03-1.89,1.863,1.863,0,0,1,.91-1.22A1.26,1.26,0,0,1,112.34,63.93Zm-1.75,2.73a2.061,2.061,0,0,0,.68,1.06.9.9,0,0,0,.94.12,1.32,1.32,0,0,0,.65-.88,2.556,2.556,0,0,0-.02-1.37,2.061,2.061,0,0,0-.68-1.06.9.9,0,0,0-.94-.12,1.32,1.32,0,0,0-.65.88A2.462,2.462,0,0,0,110.59,66.66Z" data-name="Path 3668"/>
<path class="cls-8" d="M80.92,67.83a4.192,4.192,0,0,1,1.69,2.12,4.981,4.981,0,0,1,.24,2.88,2.859,2.859,0,0,1-1.35,1.96,2.18,2.18,0,0,1-2.15-.12,4.192,4.192,0,0,1-1.69-2.12,4.981,4.981,0,0,1-.24-2.88,2.859,2.859,0,0,1,1.35-1.96A2.156,2.156,0,0,1,80.92,67.83Zm-2.57,4.34a3.027,3.027,0,0,0,1.22,1.54,1.573,1.573,0,0,0,1.54.09,2.052,2.052,0,0,0,.97-1.4,3.6,3.6,0,0,0-.18-2.08,3.027,3.027,0,0,0-1.22-1.54,1.573,1.573,0,0,0-1.54-.09,2.052,2.052,0,0,0-.97,1.4A3.681,3.681,0,0,0,78.35,72.17Z" data-name="Path 3669"/>
<path class="cls-11" d="m102.48 72.15s-2.65 0.36-3.39 1.08 1.28 3.39 2.44 3 1.34-1.42 0.95-4.08z" data-name="Path 3670"/>
<path class="cls-13" d="M102.48,72.15s-2.65.36-3.39,1.08c-.02.02-.02.04-.04.05a.957.957,0,0,0,.12.42c.14.19,2.57-.73,3.38-1.05C102.52,72.49,102.51,72.33,102.48,72.15Z" data-name="Path 3671"/>
</g>
<path class="cls-6" d="m100.47 106.12-1.64 3.08-1.65-0.06z" data-name="Path 3672"/>
<path class="cls-6" d="m87.31 102.78s-3.34 4.66-4.08 5.43l0.05 0.33 3.33-2.79c-0.01-0.01 0.91-1.98 0.7-2.97z" data-name="Path 3673"/>
<path class="cls-7" d="M90.54,101.78c-1.62.73-1.03-1.14-.56-2.22s.7-5.69.73-6.5.4-4.26.4-4.26l-.09.08a4.653,4.653,0,0,1-.91,2.37s-.37,5.59-1.2,7.86-2.16,6.52-2.16,6.52.39-.12,1.05-.3l4.47-3.86C92.26,101.47,92.16,101.05,90.54,101.78Z" data-name="Path 3674"/>
<g data-name="Group 2459">
<path class="cls-14" d="m42.86 110.19 26.86 17.99 102.58-23.02z" data-name="Path 3675"/>
<path class="cls-15" d="m69.72 128.18 3 18.35 99.58-41.37z" data-name="Path 3676"/>
</g>
</g>
<g class="cls-4" data-name="Group 2461">
<path class="cls-3" d="m180.72 45.3-40.19 17.56-5.94-14.37z" data-name="Path 3678"/>
<path class="cls-2" d="m140.04 43.48-5.45 5.01 34.82-2.18-37.13 4.28-11.29 10.58 62.25-16.54z" data-name="Path 3679"/>
</g>
<g class="cls-4" data-name="Group 2462">
<path class="cls-3" d="m91.75 150.48 6.93 11.05 40.62-24.3z" data-name="Path 3681"/>
<path class="cls-2" d="m92.85 143.91-1.99 6.82 33.15-9.18-34.67 12.57-3.01 9.14 53.84-26.47z" data-name="Path 3682"/>
</g>
</g>
</g>
</svg>
