<?xml version="1.0" encoding="UTF-8"?>
<svg viewBox="0 0 177.15 148.66" xmlns="http://www.w3.org/2000/svg">
<defs>
<style>.cls-1, .cls-12, .cls-6 {
        fill: #1baa56;
      }
      .cls-1 {
        opacity: 0.1;
      }
      .cls-2 {
        clip-path: url(#a);
      }
      .cls-3 {
        fill: #b5f7cc;
      }
      .cls-4 {
        fill: #99e0af;
      }
      .cls-10, .cls-5 {
        fill: #f4b18e;
      }
      .cls-7 {
        fill: #eaa486;
      }
      .cls-8 {
        fill: #109e4b;
      }
      .cls-13, .cls-9 {
        fill: #2e2d39;
      }
      .cls-10, .cls-11, .cls-12, .cls-14, .cls-9 {
        fill-rule: evenodd;
      }
      .cls-11 {
        fill: rgba(229,22,133,0.2);
      }
      .cls-14 {
        fill: #fff;
      }
      .cls-15 {
        fill: #ffe2d7;
      }
      .cls-16 {
        fill: #590800;
        opacity: 0.36;
      }
      .cls-17 {
        fill: #ffd65c;
      }
      .cls-18 {
        fill: #f9ca55;
      }
      .cls-19 {
        fill: #e3bc44;
      }</style>
<clipPath id="a">
<path d="m175.59 77.58c24.47 24.47 15.4 87.42-40.74 87.42s-39.86-32.27-83.88-15.17-47.57-33.86-29.5-56.25c10.33-12.8 16.93-28.69 37.8-38.48 5.01-2.35 5.93-20.18 14.46-27.71 14.12-12.45 15.51-11.54 26.2-10.48 8.15 0.81 26.26 8.55 33.74 23.77 4.36 8.86 17.29 17.29 22.31 20.64a128.58 128.58 0 0 1 19.61 16.26z" data-name="Path 3516"/>
</clipPath>
</defs>
<g transform="translate(-11.239 -16.343)" data-name="Mamikos Illustration_booking cancel succes">
<path class="cls-1" d="M175.59,77.58c24.47,24.47,15.4,87.42-40.74,87.42s-39.86-32.27-83.88-15.17S3.4,115.97,21.47,93.58C46.62,62.41,111,13,175.59,77.58Z" data-name="Path 3505"/>
<g data-name="Group 2431">
<g class="cls-2" data-name="Group 2425">
<g data-name="Group 2424">
<path class="cls-3" d="M39.55,119.45l.64,7.92-2.31,3.23s1.41.1,2.87.1a11.979,11.979,0,0,0,2.87-.3l-2.32-3.03.26-7.92Z" data-name="Path 3506"/>
<path class="cls-4" d="M52.26,119.45a101.586,101.586,0,0,1-11.8.78c-3.64-.01-6.91-.26-9.01-.48-1.54-.16-2.47-.29-2.47-.29l3.85-11.39,13.65-1.22,2.01-.18Z" data-name="Path 3507"/>
<path class="cls-3" d="M29.59,117.63l.4-1.19a99.6,99.6,0,0,0,10.13.6c5.75,0,11.34-.28,11.34-.28l.35,1.18s-6.3.62-11.72.62A85.749,85.749,0,0,1,29.59,117.63Z" data-name="Path 3508"/>
<path class="cls-3" d="M30.46,115.05s6.11.46,9.8.52a97.7,97.7,0,0,0,10.69-.52l.19.63s-6.91.42-10.97.38c-3.87-.04-9.79-.79-9.79-.79Z" data-name="Path 3509"/>
</g>
<path class="cls-4" d="M53.39,160.63l1.85-30.31H26.23l1.2,30.31Z" data-name="Path 3510"/>
<path class="cls-3" d="M53.39,139.35l.37-7.7-25.96.09v7.17Z" data-name="Path 3511"/>
<path class="cls-3" d="M27.8,138.91l5.98-3.41.66-3.78-6.64.02Z" data-name="Path 3512"/>
<path class="cls-3" d="M33.78,135.5l19.74,1.24.24-5.09-19.32.07Z" data-name="Path 3513"/>
<path class="cls-3" d="M26.63,139.87l27.97.92-.06.98-27.91-1.24Z" data-name="Path 3514"/>
<path class="cls-3" d="M52.16,152.2h-.8l-.22-6.38h1.35Z" data-name="Path 3515"/>
</g>
<g class="cls-2" data-name="Group 2429">
<path class="cls-5" d="M113.11,101.66s7.62,10.66,9.72,12.16-16.81,16.01-16.81,16.01-2.27,7.26-1.72,9.43,1.22,3.1,1.24,2.16-.4-2.41,0-2.6,1.28,1.16,1.36,3.08.91,4.66,1.7,4.6.74-.93.74-.93.4.96.96.32.36-4.01.36-4.01,1.55-1.83,1.18-3.58-1.34-5.84-1.34-5.84,24.47-12.27,23.14-17.55-5-12.75-6.84-15.98-9.28-10.09-9.28-10.09L110,96.6Z" data-name="Path 3517"/>
<path class="cls-5" d="M87.82,101.66s-7.62,10.66-9.72,12.16,16.81,16.01,16.81,16.01,2.27,7.26,1.72,9.43-1.22,3.1-1.24,2.16.4-2.41,0-2.6-1.28,1.16-1.36,3.08-.91,4.66-1.7,4.6-.74-.93-.74-.93-.4.96-.96.32-.36-4.01-.36-4.01-1.55-1.83-1.18-3.58,1.34-5.84,1.34-5.84-24.47-12.27-23.14-17.55,5-12.75,6.84-15.98,9.28-10.09,9.28-10.09l7.49,7.74Z" data-name="Path 3518"/>
<path class="cls-5" d="m94.25 80.31-0.17 5.77 3.07 7.97 10.25-6.67-1.21-2.86-1.99-4.44z" data-name="Path 3519"/>
<path class="cls-6" d="m126.26 158.41c-1.12-15.86-3.01-67.11-8.96-69.65a35.024 35.024 0 0 0-10.47-2.68c-1.35 2.79-5.56 3.76-6.37 3.92-0.82-0.16-5.03-1.13-6.37-3.92a35.4 35.4 0 0 0-10.47 2.68c-5.95 2.54-7.84 53.79-8.96 69.65a241.73 241.73 0 0 1-4.1 29.79h59.8a239.13 239.13 0 0 1-4.1-29.79z" data-name="Path 3520"/>
<path class="cls-7" d="M127.87,108.18s2.89.01,3.75.98h-3.75Z" data-name="Path 3521"/>
<g data-name="Group 2426">
<path class="cls-8" d="m95.07 87.43a4.9 4.9 0 0 1-0.99-1.35 35.4 35.4 0 0 0-10.47 2.68 2.377 2.377 0 0 0-0.97 0.9c0.11-0.05 4-1.7 12.43-2.23z" data-name="Path 3522"/>
<path class="cls-8" d="m105.83 87.45a52.7 52.7 0 0 1 12.4 2.15 2.41 2.41 0 0 0-0.92-0.83 35.024 35.024 0 0 0-10.47-2.68 5.408 5.408 0 0 1-1.01 1.36z" data-name="Path 3523"/>
</g>
<g data-name="Group 2428">
<path class="cls-9" d="M69.78,68.73a8.061,8.061,0,0,1-5.2-7.63,8.15,8.15,0,0,1,3.94-7.04,16.251,16.251,0,0,1-.22-2.62c0-9.27,8.14-16.84,18.4-17.33a10.985,10.985,0,0,1,9.7-5.4,11.123,11.123,0,0,1,9.13,4.49,22.008,22.008,0,0,1,3.05-.21c.58,0,1.15.02,1.71.07a7.553,7.553,0,0,1,4.55-1.53,7.87,7.87,0,0,1,7.65,6.68A16.488,16.488,0,0,1,128,49.23a9.394,9.394,0,0,1,.03,18.18,8.369,8.369,0,0,1,.5,2.85,7.932,7.932,0,0,1-7.77,8.08c-.13,0-.25,0-.38-.01a8.9,8.9,0,0,1-7.93,5.02,9.128,9.128,0,0,1-8.94-9.3,9.432,9.432,0,0,1,2.53-6.48,21.177,21.177,0,0,1-6.9-2.03,20,20,0,0,1-4.88,2.28,9.517,9.517,0,0,1,1.34,4.9,9.121,9.121,0,0,1-8.94,9.3,8.793,8.793,0,0,1-7-3.52,7.386,7.386,0,0,1-2.36.38,7.932,7.932,0,0,1-7.77-8.08,8.757,8.757,0,0,1,.25-2.07Z" data-name="Path 3524"/>
<path class="cls-6" d="m78.41 39.58a5.075 5.075 0 0 1 3.64 1.53 5.215 5.215 0 0 1 0 7.34 5.095 5.095 0 0 1-7.28 0 5.215 5.215 0 0 1 0-7.34 5.116 5.116 0 0 1 3.64-1.53zm2.62 2.54a3.646 3.646 0 0 0-2.62-1.09 3.7 3.7 0 0 0-2.62 1.09 3.791 3.791 0 0 0 0 5.32 3.646 3.646 0 0 0 2.62 1.09 3.7 3.7 0 0 0 2.62-1.09 3.782 3.782 0 0 0 1.09-2.66 3.825 3.825 0 0 0-1.09-2.66z" data-name="Path 3525"/>
<path class="cls-10" d="m99.54 87.81a17.53 17.53 0 0 0 17.48-17.48v-7.24a8.694 8.694 0 0 0-8.67-8.67h-17.62a8.694 8.694 0 0 0-8.67 8.67v7.24a17.537 17.537 0 0 0 17.48 17.48z" data-name="Path 3526"/>
<path class="cls-9" d="m95.88 67.7a1.606 1.606 0 1 1-1.74 1.6 1.677 1.677 0 0 1 1.74-1.6z" data-name="Path 3527"/>
<path class="cls-9" d="m102.95 67.98a1.606 1.606 0 1 1-1.74 1.6 1.677 1.677 0 0 1 1.74-1.6z" data-name="Path 3528"/>
<path class="cls-7" d="m117.03 64.44v-1.36a8.694 8.694 0 0 0-8.67-8.67h-17.63a8.694 8.694 0 0 0-8.67 8.67v2.42l0.01 0.02s3.28-6.48 5.64-6.95 3.92 0.72 5.43 0 12.27-0.46 13.02 0.08 3.07-0.22 4.29-0.65c0 0 0.59 4.78 6.58 6.44z" data-name="Path 3529"/>
<path class="cls-9" d="M101.7,62.37l6.14,3.79a.542.542,0,0,0,.75-.18h0a.542.542,0,0,0-.18-.75l-6.14-3.79a.542.542,0,0,0-.75.18h0A.538.538,0,0,0,101.7,62.37Z" data-name="Path 3530"/>
<path class="cls-9" d="M97.67,61.63h0a.558.558,0,0,0-.75-.18l-6.14,3.79a.558.558,0,0,0-.18.75h0a.558.558,0,0,0,.75.18l6.14-3.79A.542.542,0,0,0,97.67,61.63Z" data-name="Path 3531"/>
<path class="cls-11" d="m109.65 72.11a3.343 3.343 0 1 1-3.48 3.34 3.41 3.41 0 0 1 3.48-3.34z" data-name="Path 3532"/>
<path class="cls-11" d="m89.14 72.11a3.343 3.343 0 1 1-3.48 3.34 3.41 3.41 0 0 1 3.48-3.34z" data-name="Path 3533"/>
<path class="cls-12" d="m90.32 49.49h17.64a1.959 1.959 0 0 1 1.95 1.95v4.48a1.959 1.959 0 0 1-1.95 1.95h-17.64a1.959 1.959 0 0 1-1.95-1.95v-4.48a1.952 1.952 0 0 1 1.95-1.95z" data-name="Path 3534"/>
<path class="cls-6" d="m73.36 56.56a5.075 5.075 0 0 1 3.64 1.53 5.215 5.215 0 0 1 0 7.34 5.095 5.095 0 0 1-7.28 0 5.215 5.215 0 0 1 0-7.34 5.075 5.075 0 0 1 3.64-1.53zm2.62 2.54a3.67 3.67 0 0 0-5.24 0 3.791 3.791 0 0 0 0 5.32 3.67 3.67 0 0 0 5.24 0 3.782 3.782 0 0 0 1.09-2.66 3.825 3.825 0 0 0-1.09-2.66z" data-name="Path 3535"/>
<path class="cls-6" d="m126.42 53.9a5.075 5.075 0 0 1 3.64 1.53 5.215 5.215 0 0 1 0 7.34 5.095 5.095 0 0 1-7.28 0 5.215 5.215 0 0 1 0-7.34 5.116 5.116 0 0 1 3.64-1.53zm2.62 2.55a3.67 3.67 0 0 0-5.24 0 3.791 3.791 0 0 0 0 5.32 3.67 3.67 0 0 0 5.24 0 3.791 3.791 0 0 0 0-5.32z" data-name="Path 3536"/>
<path class="cls-6" d="m114.56 34.92a5.075 5.075 0 0 1 3.64 1.53 5.215 5.215 0 0 1 0 7.34 5.095 5.095 0 0 1-7.28 0 5.215 5.215 0 0 1 0-7.34 5.116 5.116 0 0 1 3.64-1.53zm2.62 2.54a3.67 3.67 0 0 0-5.24 0 3.791 3.791 0 0 0 0 5.32 3.67 3.67 0 0 0 5.24 0 3.791 3.791 0 0 0 0-5.32z" data-name="Path 3537"/>
<path class="cls-9" d="m91.19 46.94h15.72v9.31a2.9 2.9 0 0 1-2.89 2.89h-9.94a2.9 2.9 0 0 1-2.89-2.89z" data-name="Path 3538"/>
<path class="cls-9" d="m79.75 66.45a5.25 5.25 0 1 1-5.2 5.25 5.226 5.226 0 0 1 5.2-5.25z" data-name="Path 3539"/>
<path class="cls-9" d="m119.01 66.55a5.25 5.25 0 1 1-5.2 5.25 5.226 5.226 0 0 1 5.2-5.25z" data-name="Path 3540"/>
<path class="cls-9" d="m116.21 51.11a5.25 5.25 0 1 1-5.2 5.25 5.226 5.226 0 0 1 5.2-5.25z" data-name="Path 3541"/>
<path class="cls-9" d="m82.08 50.93a4.81 4.81 0 1 1-4.77 4.81 4.8 4.8 0 0 1 4.77-4.81z" data-name="Path 3542"/>
<g data-name="Group 2427">
<path class="cls-13" d="M101.06,78.35a8.668,8.668,0,0,1,2.69,1.23.383.383,0,0,1-.42.64c-4.29-2.84-7.03-.22-7.15-.1a.382.382,0,0,1-.54-.54A5.943,5.943,0,0,1,101.06,78.35Z" data-name="Path 3543"/>
</g>
<path class="cls-14" d="m87.85 63.47a1 1 0 0 1-2 0 8.487 8.487 0 0 1 1-2.21 8.33 8.33 0 0 1 1 2.21z" data-name="Path 3544"/>
</g>
<path class="cls-7" d="M93.67,86.79s7.1,3.09,12.48.31l.31-.4.28-.45C106.75,86.24,98.89,88.47,93.67,86.79Z" data-name="Path 3545"/>
</g>
<g class="cls-2" data-name="Group 2430">
<path class="cls-3" d="m178.45 165.32 3.35-68.4-42.25-1.39 4.05 70.32z" data-name="Path 3547"/>
<path class="cls-4" d="m177.04 163.23 3.14-65.21h-39.21l4.29 66.29z" data-name="Path 3548"/>
<path class="cls-4" d="m151.59 98.02v60.94l-6.33 5.35-4.29-66.29z" data-name="Path 3549"/>
<path class="cls-15" d="M151.59,158.96l25.65.05-.2,4.22-31.78,1.08Z" data-name="Path 3550"/>
<path class="cls-3" d="M179.19,132.57l-36.86-.84v1.52l36.86.42Z" data-name="Path 3551"/>
<path class="cls-4" d="M178.14,147.98l-33.91.52.54,2.29,33.37-1.41Z" data-name="Path 3552"/>
<path class="cls-4" d="M144.23,148.49l7.36-1.6,26.24-.02-.06,1.11Z" data-name="Path 3553"/>
<path class="cls-3" d="M180.9,115.42l-39.93-1.14.51,2.22h38.08Z" data-name="Path 3554"/>
<path class="cls-16" d="M144.48,152.27l-.1-1.48,33.32-1.39-.66,13.83-9.51.32L172.3,159l3.08-7.46-23.79,3.54Z" data-name="Path 3555"/>
<path class="cls-3" d="m144.85 164.65-1.25-14.37 34.54-1.54-0.9 15.17z" data-name="Path 3556"/>
<path class="cls-4" d="M164.22,151.16l-.23.99h-9.32l-.29-.99Z" data-name="Path 3557"/>
</g>
</g>
<path class="cls-7" d="M73.01,108.18s-2.89.01-3.75.98h3.75Z" data-name="Path 3559"/>
<path class="cls-4" d="M150.65,74.19a3.985,3.985,0,0,0-2.02-2.4,1.753,1.753,0,0,0-.28-.13.414.414,0,0,0-.29.01h-.01l-1.91.9-1.42.66-.02.01-.49.23a.429.429,0,0,0-.21.21.412.412,0,0,0-.01.29l.13.43.33,1.05.46,1.47-1.46.5-1.04.36-.01.01-.41.14a.285.285,0,0,0-.14.08.345.345,0,0,0-.1.13l-.73,1.43.19-1.21.18-1.21.99-.34.62-.21.01-.01.35-.12a.385.385,0,0,0,.24-.21.4.4,0,0,0,.02-.32l-.12-.37-.36-1.16-.48-1.52,1.19-.76,1.2-.77a.43.43,0,0,0,.18-.26.445.445,0,0,0-.04-.3h-.01v-.01h-.01a4.263,4.263,0,0,0-.71-.92,3.948,3.948,0,0,0-.96-.67,4.029,4.029,0,0,0-3.13-.21,4.163,4.163,0,0,0-2.42,2.05,4.355,4.355,0,0,0-.44,1.48,4.566,4.566,0,0,0,.13,1.56l1.08,4.04,1.06,4.08h.01a.41.41,0,0,0,.22.26h.01a.414.414,0,0,0,.31.01l3.91-1.55,3.9-1.52a4.508,4.508,0,0,0,2.26-2.02A4.1,4.1,0,0,0,150.65,74.19Z" data-name="Path 3560"/>
<path class="cls-4" d="M48.23,65.27a3.34,3.34,0,0,0,.59,1.08,3.461,3.461,0,0,0,.93.81l2.91,1.71,2.92,1.74a.363.363,0,0,0,.25.04h.01a.336.336,0,0,0,.21-.18h.01l1.44-3.08,1.44-3.05a3.524,3.524,0,0,0,.33-1.21,3.17,3.17,0,0,0-.14-1.22,3.386,3.386,0,0,0-4.19-2.18,3.15,3.15,0,0,0-.87.41,3.579,3.579,0,0,0-.71.64h-.01v.01h-.01a.341.341,0,0,0-.08.23.336.336,0,0,0,.11.23l.86.75.85.76-.6,1.14-.45.87-.15.28a.317.317,0,0,0-.03.25.305.305,0,0,0,.16.19l.26.14.01.01.47.25.74.4-.03.98-.02.98L55.08,67a.238.238,0,0,0-.06-.11.272.272,0,0,0-.1-.08l-.31-.16-.01-.01-.78-.42-1.1-.58.58-1.1.41-.79.17-.32a.318.318,0,0,0,.03-.23.352.352,0,0,0-.14-.2l-.36-.24-.01-.01-1.04-.71-1.41-.96h-.01a.315.315,0,0,0-.23-.05c-.08.01-.16.04-.25.06a3.267,3.267,0,0,0-1.96,1.63A3.305,3.305,0,0,0,48.23,65.27Z" data-name="Path 3561"/>
<g data-name="Group 2433">
<path class="cls-17" d="m130.83 152.21h-60.52a5.4 5.4 0 0 1-5.4-5.4v-32.24a5.4 5.4 0 0 1 5.4-5.4h60.52a5.4 5.4 0 0 1 5.4 5.4v32.24a5.4 5.4 0 0 1-5.4 5.4z" data-name="Path 3562"/>
<path class="cls-18" d="M72.68,109.17s.03,3.13.41,3.62a2.372,2.372,0,0,0,1.36.6,8.188,8.188,0,0,0,.93,2.01c.32.22,1.11-.07,1.11-.07s.41.8,1.02.72,1.32-1.28,1.32-1.28.6.61,1.05.44.66-.51.84-1.18-6.6-4.89-6.6-4.89Z" data-name="Path 3563"/>
<path class="cls-18" d="M128.27,109.17s-.03,3.13-.41,3.62a2.372,2.372,0,0,1-1.36.6,8.188,8.188,0,0,1-.93,2.01c-.32.22-1.11-.07-1.11-.07s-.41.8-1.02.72-1.32-1.28-1.32-1.28-.6.61-1.05.44-.66-.51-.84-1.18,6.6-4.89,6.6-4.89Z" data-name="Path 3564"/>
<path class="cls-5" d="M74.4,107.19s-1.37.21-1.38.99.25,4.08.25,4.08.28.72.72.72a.658.658,0,0,0,.59-.38l.82,2.22a.605.605,0,0,0,.59.41c.47,0,.53-.53.53-.53s.23,1.05,1.01,1.05,1.39-1.5,1.39-1.5l.08-.05s.55.76,1.1.55.83-.91.92-2.65-.39-4.1-1.08-4.81a2.393,2.393,0,0,0-1.72-.64s-.96.18-.96.6a1.481,1.481,0,0,0-1.21-.61,1.174,1.174,0,0,0-1.07.82S74.89,107.19,74.4,107.19Z" data-name="Path 3565"/>
<path class="cls-5" d="M126.53,107.19s1.37.21,1.38.99-.25,4.08-.25,4.08-.28.72-.72.72a.641.641,0,0,1-.59-.38l-.82,2.22a.605.605,0,0,1-.59.41c-.47,0-.53-.53-.53-.53s-.23,1.05-1.01,1.05-.91-1.26-.91-1.26l-.57-.28s-.55.76-1.1.55-.83-.91-.92-2.65.39-4.1,1.08-4.81a2.393,2.393,0,0,1,1.72-.64s.96.18.96.6a1.481,1.481,0,0,1,1.21-.61,1.174,1.174,0,0,1,1.07.82S126.04,107.19,126.53,107.19Z" data-name="Path 3566"/>
<g data-name="Group 2432">
<path class="cls-6" d="m98.64 134.01-6.94-6.93-2.32 2.31 9.26 9.25 16.1-16.11-2.31-2.31z" data-name="Path 3567"/>
</g>
<circle class="cls-19" transform="translate(67.25 112.01)" cx="1.64" cy="1.64" r="1.64" data-name="Ellipse 435"/>
<circle class="cls-19" transform="translate(67.25 146.29)" cx="1.64" cy="1.64" r="1.64" data-name="Ellipse 436"/>
<circle class="cls-19" transform="translate(130.18 112.01)" cx="1.64" cy="1.64" r="1.64" data-name="Ellipse 437"/>
<circle class="cls-19" transform="translate(130.18 146.29)" cx="1.64" cy="1.64" r="1.64" data-name="Ellipse 438"/>
</g>
</g>
</svg>
