// Jest Snapshot v1, https://goo.gl/fbAQLP

exports[`PropertyDetailPlaceholder.vue Should render component and match snapshot 1`] = `
<div class="row">
  <div class="col-xs-12">
    <div class="shimmer-placeholder" style="height: 20px; width: 80%;"></div>
    <div class="shimmer-placeholder" style="height: 20px; width: 80%;"></div>
  </div>
  <div class="col-xs-6">
    <div class="shimmer-placeholder" style="height: 40px; width: 100%;"></div>
  </div>
  <div class="col-xs-6">
    <div class="shimmer-placeholder" style="height: 40px; width: 100%;"></div>
  </div>
  <div class="col-xs-12 mt-4">
    <div class="row">
      <div class="col-xs-12 mb-2">
        <div class="shimmer-placeholder" style="height: 20px; width: 90%;"></div>
      </div>
      <div class="col-xs-12 mb-2">
        <div class="shimmer-placeholder" style="height: 20px; width: 90%;"></div>
      </div>
      <div class="col-xs-12 mb-2">
        <div class="shimmer-placeholder" style="height: 20px; width: 90%;"></div>
      </div>
      <div class="col-xs-12 mb-2">
        <div class="shimmer-placeholder" style="height: 20px; width: 90%;"></div>
      </div>
      <div class="col-xs-12 mb-2">
        <div class="shimmer-placeholder" style="height: 20px; width: 90%;"></div>
      </div>
      <div class="col-xs-12 mb-2">
        <div class="shimmer-placeholder" style="height: 20px; width: 90%;"></div>
      </div>
      <div class="col-xs-12 mb-2">
        <div class="shimmer-placeholder" style="height: 20px; width: 90%;"></div>
      </div>
      <div class="col-xs-12 mb-2">
        <div class="shimmer-placeholder" style="height: 20px; width: 90%;"></div>
      </div>
      <div class="col-xs-12 mb-2">
        <div class="shimmer-placeholder" style="height: 20px; width: 90%;"></div>
      </div>
      <div class="col-xs-12 mb-2">
        <div class="shimmer-placeholder" style="height: 20px; width: 90%;"></div>
      </div>
    </div>
  </div>
</div>
`;
