[
	{
		"type": "additional",
		"label": "Biaya Tambahan Lain",
		"active": true,
		"sort": 1,
		"data": [
			{
				"id": 40,
				"type": "additional",
				"name": "Pintu",
				"price": 200000,
				"meta": null
			},
			{
				"id": 44,
				"type": "additional",
				"name": "Kursi",
				"price": 50000,
				"meta": null
			}
		]
	},
	{
		"type": "fine",
		"label": "Biaya Denda",
		"active": true,
		"sort": 2,
		"data": [
			{
				"id": 41,
				"type": "fine",
				"name": "Denda",
				"price": 40000,
				"meta": [
					{
						"key": "fine_maximum_length",
						"value": "3"
					},
					{
						"key": "fine_duration_type",
						"value": "day"
					}
				]
			}
		]
	},
	{
		"type": "deposit",
		"label": "Biaya Deposit",
		"active": true,
		"sort": 3,
		"data": [
			{
				"id": 42,
				"type": "deposit",
				"name": "Deposit",
				"price": 12000,
				"meta": null
			}
		]
	},
	{
		"type": "dp",
		"label": "Biaya Uang Muka (DP)",
		"active": true,
		"sort": 4,
		"data": [
			{
				"id": 43,
				"type": "dp",
				"name": "DP 50%",
				"price": 0,
				"meta": [
					{
						"key": "percentage",
						"value": "50"
					}
				]
			}
		]
	}
]
