// Jest Snapshot v1, https://goo.gl/fbAQLP

exports[`Consultant/pages/booking-management/Reject should render correctly 1`] = `
<div
  class="booking-management-reject"
>
  <div
    class="row"
  >
    <div
      class="col-xs-12"
    >
      <h4>
        <strong>
          Mengapa Anda menolak calon penyewa ini?
        </strong>
      </h4>
    </div>
     
    <div
      class="col-xs-12"
    >
      <ctradiogroup-stub
        legend=""
        options="[object Object],[object Object],[object Object],[object Object]"
        value=""
      />
    </div>
     
    <!---->
  </div>
   
  <ct-bottom-container-stub
    styles=""
  >
    <ct-button-stub
      block="true"
      color="secondary"
      large="true"
      loadingtext="Menolak..."
      outline="true"
    >
      
			Tolak
		
    </ct-button-stub>
  </ct-bottom-container-stub>
</div>
`;
